\defcounter {refsection}{0}\relax 
\headcommand {\slideentry {0}{0}{1}{1/1}{}{0}}
\defcounter {refsection}{0}\relax 
\headcommand {\beamer@framepages {1}{1}}
\defcounter {refsection}{0}\relax 
\headcommand {\slideentry {0}{0}{2}{2/2}{}{0}}
\defcounter {refsection}{0}\relax 
\headcommand {\beamer@framepages {2}{2}}
\defcounter {refsection}{0}\relax 
\headcommand {\beamer@sectionpages {1}{2}}
\defcounter {refsection}{0}\relax 
\headcommand {\beamer@subsectionpages {1}{2}}
\defcounter {refsection}{0}\relax 
\headcommand {\sectionentry {1}{Introducci\IeC {\'o}n}{3}{Introducci\IeC {\'o}n}{0}}
\defcounter {refsection}{0}\relax 
\headcommand {\beamer@subsectionpages {3}{2}}
\defcounter {refsection}{0}\relax 
\headcommand {\beamer@subsectionentry {0}{1}{1}{3}{Contexto}}
\defcounter {refsection}{0}\relax 
\headcommand {\slideentry {1}{1}{1}{3/3}{Contexto}{0}}
\defcounter {refsection}{0}\relax 
\headcommand {\beamer@framepages {3}{3}}
\defcounter {refsection}{0}\relax 
\headcommand {\slideentry {1}{1}{2}{4/4}{Contexto}{0}}
\defcounter {refsection}{0}\relax 
\headcommand {\beamer@framepages {4}{4}}
\defcounter {refsection}{0}\relax 
\headcommand {\beamer@subsectionpages {3}{4}}
\defcounter {refsection}{0}\relax 
\headcommand {\beamer@subsectionentry {0}{1}{2}{5}{Problema}}
\defcounter {refsection}{0}\relax 
\headcommand {\slideentry {1}{2}{1}{5/5}{Problema}{0}}
\defcounter {refsection}{0}\relax 
\headcommand {\beamer@framepages {5}{5}}
\defcounter {refsection}{0}\relax 
\headcommand {\beamer@subsectionpages {5}{5}}
\defcounter {refsection}{0}\relax 
\headcommand {\beamer@subsectionentry {0}{1}{3}{6}{Objetivos}}
\defcounter {refsection}{0}\relax 
\headcommand {\slideentry {1}{3}{1}{6/6}{Objetivos}{0}}
\defcounter {refsection}{0}\relax 
\headcommand {\beamer@framepages {6}{6}}
\defcounter {refsection}{0}\relax 
\headcommand {\beamer@sectionpages {3}{6}}
\defcounter {refsection}{0}\relax 
\headcommand {\beamer@subsectionpages {6}{6}}
\defcounter {refsection}{0}\relax 
\headcommand {\sectionentry {2}{Revisi\IeC {\'o}n te\IeC {\'o}rica}{7}{Revisi\IeC {\'o}n te\IeC {\'o}rica}{0}}
\defcounter {refsection}{0}\relax 
\headcommand {\beamer@subsectionpages {7}{6}}
\defcounter {refsection}{0}\relax 
\headcommand {\beamer@subsectionentry {0}{2}{1}{7}{Conceptos importantes}}
\defcounter {refsection}{0}\relax 
\headcommand {\slideentry {2}{1}{1}{7/7}{Conceptos importantes}{0}}
\defcounter {refsection}{0}\relax 
\headcommand {\beamer@framepages {7}{7}}
\defcounter {refsection}{0}\relax 
\headcommand {\slideentry {2}{1}{2}{8/8}{Conceptos importantes}{0}}
\defcounter {refsection}{0}\relax 
\headcommand {\beamer@framepages {8}{8}}
\defcounter {refsection}{0}\relax 
\headcommand {\beamer@subsectionpages {7}{8}}
\defcounter {refsection}{0}\relax 
\headcommand {\beamer@subsectionentry {0}{2}{2}{9}{Enfoques actuales}}
\defcounter {refsection}{0}\relax 
\headcommand {\slideentry {2}{2}{1}{9/9}{Enfoques actuales}{0}}
\defcounter {refsection}{0}\relax 
\headcommand {\beamer@framepages {9}{9}}
\defcounter {refsection}{0}\relax 
\headcommand {\slideentry {2}{2}{2}{10/10}{Enfoques actuales}{0}}
\defcounter {refsection}{0}\relax 
\headcommand {\beamer@framepages {10}{10}}
\defcounter {refsection}{0}\relax 
\headcommand {\beamer@sectionpages {7}{10}}
\defcounter {refsection}{0}\relax 
\headcommand {\beamer@subsectionpages {9}{10}}
\defcounter {refsection}{0}\relax 
\headcommand {\sectionentry {3}{M\IeC {\'e}todos y soluci\IeC {\'o}n}{11}{M\IeC {\'e}todos y soluci\IeC {\'o}n}{0}}
\defcounter {refsection}{0}\relax 
\headcommand {\beamer@subsectionpages {11}{10}}
\defcounter {refsection}{0}\relax 
\headcommand {\beamer@subsectionentry {0}{3}{1}{11}{Arquitectura propuesta}}
\defcounter {refsection}{0}\relax 
\headcommand {\slideentry {3}{1}{1}{11/11}{Arquitectura propuesta}{0}}
\defcounter {refsection}{0}\relax 
\headcommand {\beamer@framepages {11}{11}}
\defcounter {refsection}{0}\relax 
\headcommand {\beamer@subsectionpages {11}{11}}
\defcounter {refsection}{0}\relax 
\headcommand {\beamer@subsectionentry {0}{3}{2}{12}{Interfaz de tarjeta SD}}
\defcounter {refsection}{0}\relax 
\headcommand {\slideentry {3}{2}{1}{12/12}{Interfaz de tarjeta SD}{0}}
\defcounter {refsection}{0}\relax 
\headcommand {\beamer@framepages {12}{12}}
\defcounter {refsection}{0}\relax 
\headcommand {\beamer@subsectionpages {12}{12}}
\defcounter {refsection}{0}\relax 
\headcommand {\beamer@subsectionentry {0}{3}{3}{13}{N\IeC {\'u}cleo exacto y de control}}
\defcounter {refsection}{0}\relax 
\headcommand {\slideentry {3}{3}{1}{13/13}{N\IeC {\'u}cleo exacto y de control}{0}}
\defcounter {refsection}{0}\relax 
\headcommand {\beamer@framepages {13}{13}}
\defcounter {refsection}{0}\relax 
\headcommand {\beamer@subsectionpages {13}{13}}
\defcounter {refsection}{0}\relax 
\headcommand {\beamer@subsectionentry {0}{3}{4}{14}{N\IeC {\'u}cleo aproximado}}
\defcounter {refsection}{0}\relax 
\headcommand {\slideentry {3}{4}{1}{14/14}{N\IeC {\'u}cleo aproximado}{0}}
\defcounter {refsection}{0}\relax 
\headcommand {\beamer@framepages {14}{14}}
\defcounter {refsection}{0}\relax 
\headcommand {\beamer@subsectionpages {14}{14}}
\defcounter {refsection}{0}\relax 
\headcommand {\beamer@subsectionentry {0}{3}{5}{15}{Proceso de entrenamiento}}
\defcounter {refsection}{0}\relax 
\headcommand {\slideentry {3}{5}{1}{15/15}{Proceso de entrenamiento}{0}}
\defcounter {refsection}{0}\relax 
\headcommand {\beamer@framepages {15}{15}}
\defcounter {refsection}{0}\relax 
\headcommand {\beamer@sectionpages {11}{15}}
\defcounter {refsection}{0}\relax 
\headcommand {\beamer@subsectionpages {15}{15}}
\defcounter {refsection}{0}\relax 
\headcommand {\sectionentry {4}{Resultados}{16}{Resultados}{0}}
\defcounter {refsection}{0}\relax 
\headcommand {\beamer@subsectionpages {16}{15}}
\defcounter {refsection}{0}\relax 
\headcommand {\beamer@subsectionentry {0}{4}{1}{16}{Entrenamiento Modelo Lineal}}
\defcounter {refsection}{0}\relax 
\headcommand {\slideentry {4}{1}{1}{16/16}{Entrenamiento Modelo Lineal}{0}}
\defcounter {refsection}{0}\relax 
\headcommand {\beamer@framepages {16}{16}}
\defcounter {refsection}{0}\relax 
\headcommand {\beamer@subsectionpages {16}{16}}
\defcounter {refsection}{0}\relax 
\headcommand {\beamer@subsectionentry {0}{4}{2}{17}{M\IeC {\'e}tricas}}
\defcounter {refsection}{0}\relax 
\headcommand {\slideentry {4}{2}{1}{17/17}{M\IeC {\'e}tricas}{0}}
\defcounter {refsection}{0}\relax 
\headcommand {\beamer@framepages {17}{17}}
\defcounter {refsection}{0}\relax 
\headcommand {\beamer@subsectionpages {17}{17}}
\defcounter {refsection}{0}\relax 
\headcommand {\beamer@subsectionentry {0}{4}{3}{18}{Comparaci\IeC {\'o}n de Modelos}}
\defcounter {refsection}{0}\relax 
\headcommand {\slideentry {4}{3}{1}{18/18}{Comparaci\IeC {\'o}n de Modelos}{0}}
\defcounter {refsection}{0}\relax 
\headcommand {\beamer@framepages {18}{18}}
\defcounter {refsection}{0}\relax 
\headcommand {\beamer@subsectionpages {18}{18}}
\defcounter {refsection}{0}\relax 
\headcommand {\beamer@subsectionentry {0}{4}{4}{19}{Comparaci\IeC {\'o}n de Periodicidad}}
\defcounter {refsection}{0}\relax 
\headcommand {\slideentry {4}{4}{1}{19/19}{Comparaci\IeC {\'o}n de Periodicidad}{0}}
\defcounter {refsection}{0}\relax 
\headcommand {\beamer@framepages {19}{19}}
\defcounter {refsection}{0}\relax 
\headcommand {\beamer@sectionpages {16}{19}}
\defcounter {refsection}{0}\relax 
\headcommand {\beamer@subsectionpages {19}{19}}
\defcounter {refsection}{0}\relax 
\headcommand {\sectionentry {5}{Conclusiones}{20}{Conclusiones}{0}}
\defcounter {refsection}{0}\relax 
\headcommand {\beamer@subsectionpages {20}{19}}
\defcounter {refsection}{0}\relax 
\headcommand {\beamer@subsectionentry {0}{5}{1}{20}{Conclusiones}}
\defcounter {refsection}{0}\relax 
\headcommand {\slideentry {5}{1}{1}{20/20}{Conclusiones}{0}}
\defcounter {refsection}{0}\relax 
\headcommand {\beamer@framepages {20}{20}}
\defcounter {refsection}{0}\relax 
\headcommand {\beamer@subsectionpages {20}{20}}
\defcounter {refsection}{0}\relax 
\headcommand {\beamer@subsectionentry {0}{5}{2}{21}{Recomendaciones}}
\defcounter {refsection}{0}\relax 
\headcommand {\slideentry {5}{2}{1}{21/21}{Recomendaciones}{0}}
\defcounter {refsection}{0}\relax 
\headcommand {\beamer@framepages {21}{21}}
\defcounter {refsection}{0}\relax 
\headcommand {\beamer@subsectionpages {21}{21}}
\defcounter {refsection}{0}\relax 
\headcommand {\beamer@subsectionentry {0}{5}{3}{22}{Trabajo futuro}}
\defcounter {refsection}{0}\relax 
\headcommand {\slideentry {5}{3}{1}{22/22}{Trabajo futuro}{0}}
\defcounter {refsection}{0}\relax 
\headcommand {\beamer@framepages {22}{22}}
\defcounter {refsection}{0}\relax 
\headcommand {\beamer@sectionpages {20}{22}}
\defcounter {refsection}{0}\relax 
\headcommand {\beamer@subsectionpages {22}{22}}
\defcounter {refsection}{0}\relax 
\headcommand {\sectionentry {6}{Resumen}{23}{Resumen}{0}}
\defcounter {refsection}{0}\relax 
\headcommand {\slideentry {6}{0}{1}{23/23}{}{0}}
\defcounter {refsection}{0}\relax 
\headcommand {\beamer@framepages {23}{23}}
\headcommand {\beamer@partpages {1}{23}}
\headcommand {\beamer@subsectionpages {23}{23}}
\headcommand {\beamer@sectionpages {23}{23}}
\headcommand {\beamer@documentpages {23}}
\headcommand {\gdef \inserttotalframenumber {23}}
