PWD /home/fasm22/workspace/ProjectGrad/phoenix/Thesis/Avances/Defensa
INPUT /etc/texmf/web2c/texmf.cnf
INPUT /usr/share/texmf/web2c/texmf.cnf
INPUT /usr/share/texlive/texmf-dist/web2c/texmf.cnf
INPUT /var/lib/texmf/web2c/pdftex/pdflatex.fmt
INPUT /home/fasm22/workspace/ProjectGrad/phoenix/Thesis/Avances/Defensa/presentation.tex
OUTPUT /home/fasm22/workspace/ProjectGrad/phoenix/Thesis/Avances/Defensa/presentation.log
INPUT /usr/share/texlive/texmf-dist/tex/latex/beamer/beamer.cls
INPUT /usr/share/texlive/texmf-dist/tex/latex/beamer/beamer.cls
INPUT /usr/share/texlive/texmf-dist/tex/latex/beamer/beamerbasemodes.sty
INPUT /usr/share/texlive/texmf-dist/tex/latex/beamer/beamerbasemodes.sty
INPUT /usr/share/texlive/texmf-dist/tex/latex/etoolbox/etoolbox.sty
INPUT /usr/share/texlive/texmf-dist/tex/latex/etoolbox/etoolbox.sty
INPUT /usr/share/texlive/texmf-dist/tex/latex/beamer/beamerbasedecode.sty
INPUT /usr/share/texlive/texmf-dist/tex/latex/beamer/beamerbasedecode.sty
INPUT /usr/share/texlive/texmf-dist/tex/generic/oberdiek/ifpdf.sty
INPUT /usr/share/texlive/texmf-dist/tex/generic/oberdiek/ifpdf.sty
INPUT /usr/share/texlive/texmf-dist/tex/latex/beamer/beamerbaseoptions.sty
INPUT /usr/share/texlive/texmf-dist/tex/latex/beamer/beamerbaseoptions.sty
INPUT /usr/share/texlive/texmf-dist/tex/latex/graphics/keyval.sty
INPUT /usr/share/texlive/texmf-dist/tex/latex/graphics/keyval.sty
INPUT /usr/share/texlive/texmf-dist/tex/latex/geometry/geometry.sty
INPUT /usr/share/texlive/texmf-dist/tex/latex/geometry/geometry.sty
INPUT /usr/share/texlive/texmf-dist/tex/generic/oberdiek/ifvtex.sty
INPUT /usr/share/texlive/texmf-dist/tex/generic/oberdiek/ifvtex.sty
INPUT /usr/share/texlive/texmf-dist/tex/generic/ifxetex/ifxetex.sty
INPUT /usr/share/texlive/texmf-dist/tex/generic/ifxetex/ifxetex.sty
INPUT /usr/share/texlive/texmf-dist/tex/latex/base/size11.clo
INPUT /usr/share/texlive/texmf-dist/tex/latex/base/size11.clo
INPUT /usr/share/texlive/texmf-dist/fonts/map/fontname/texfonts.map
INPUT /usr/share/texlive/texmf-dist/fonts/tfm/public/cm/cmr10.tfm
INPUT /usr/share/texlive/texmf-dist/tex/latex/pgf/basiclayer/pgfcore.sty
INPUT /usr/share/texlive/texmf-dist/tex/latex/pgf/basiclayer/pgfcore.sty
INPUT /usr/share/texlive/texmf-dist/tex/latex/graphics/graphicx.sty
INPUT /usr/share/texlive/texmf-dist/tex/latex/graphics/graphicx.sty
INPUT /usr/share/texlive/texmf-dist/tex/latex/graphics/graphics.sty
INPUT /usr/share/texlive/texmf-dist/tex/latex/graphics/graphics.sty
INPUT /usr/share/texlive/texmf-dist/tex/latex/graphics/trig.sty
INPUT /usr/share/texlive/texmf-dist/tex/latex/graphics/trig.sty
INPUT /usr/share/texlive/texmf-dist/tex/latex/graphics-cfg/graphics.cfg
INPUT /usr/share/texlive/texmf-dist/tex/latex/graphics-cfg/graphics.cfg
INPUT /usr/share/texlive/texmf-dist/tex/latex/graphics-def/pdftex.def
INPUT /usr/share/texlive/texmf-dist/tex/latex/graphics-def/pdftex.def
INPUT /usr/share/texlive/texmf-dist/tex/latex/pgf/systemlayer/pgfsys.sty
INPUT /usr/share/texlive/texmf-dist/tex/latex/pgf/systemlayer/pgfsys.sty
INPUT /usr/share/texlive/texmf-dist/tex/latex/pgf/utilities/pgfrcs.sty
INPUT /usr/share/texlive/texmf-dist/tex/latex/pgf/utilities/pgfrcs.sty
INPUT /usr/share/texlive/texmf-dist/tex/generic/pgf/utilities/pgfutil-common.tex
INPUT /usr/share/texlive/texmf-dist/tex/generic/pgf/utilities/pgfutil-common-lists.tex
INPUT /usr/share/texlive/texmf-dist/tex/generic/pgf/utilities/pgfutil-latex.def
INPUT /usr/share/texlive/texmf-dist/tex/latex/ms/everyshi.sty
INPUT /usr/share/texlive/texmf-dist/tex/latex/ms/everyshi.sty
INPUT /usr/share/texlive/texmf-dist/tex/generic/pgf/utilities/pgfrcs.code.tex
INPUT /usr/share/texlive/texmf-dist/tex/generic/pgf/utilities/pgfrcs.code.tex
INPUT /usr/share/texlive/texmf-dist/tex/generic/pgf/systemlayer/pgfsys.code.tex
INPUT /usr/share/texlive/texmf-dist/tex/generic/pgf/systemlayer/pgfsys.code.tex
INPUT /usr/share/texlive/texmf-dist/tex/generic/pgf/utilities/pgfkeys.code.tex
INPUT /usr/share/texlive/texmf-dist/tex/generic/pgf/utilities/pgfkeysfiltered.code.tex
INPUT /usr/share/texlive/texmf-dist/tex/generic/pgf/systemlayer/pgf.cfg
INPUT /usr/share/texlive/texmf-dist/tex/generic/pgf/systemlayer/pgfsys-pdftex.def
INPUT /usr/share/texlive/texmf-dist/tex/generic/pgf/systemlayer/pgfsys-pdftex.def
INPUT /usr/share/texlive/texmf-dist/tex/generic/pgf/systemlayer/pgfsys-common-pdf.def
INPUT /usr/share/texlive/texmf-dist/tex/generic/pgf/systemlayer/pgfsyssoftpath.code.tex
INPUT /usr/share/texlive/texmf-dist/tex/generic/pgf/systemlayer/pgfsyssoftpath.code.tex
INPUT /usr/share/texlive/texmf-dist/tex/generic/pgf/systemlayer/pgfsysprotocol.code.tex
INPUT /usr/share/texlive/texmf-dist/tex/generic/pgf/systemlayer/pgfsysprotocol.code.tex
INPUT /usr/share/texlive/texmf-dist/tex/latex/xcolor/xcolor.sty
INPUT /usr/share/texlive/texmf-dist/tex/latex/xcolor/xcolor.sty
INPUT /usr/share/texlive/texmf-dist/tex/latex/graphics-cfg/color.cfg
INPUT /usr/share/texlive/texmf-dist/tex/latex/graphics-cfg/color.cfg
INPUT /usr/share/texlive/texmf-dist/tex/generic/pgf/basiclayer/pgfcore.code.tex
INPUT /usr/share/texlive/texmf-dist/tex/generic/pgf/basiclayer/pgfcore.code.tex
INPUT /usr/share/texlive/texmf-dist/tex/generic/pgf/math/pgfmath.code.tex
INPUT /usr/share/texlive/texmf-dist/tex/generic/pgf/math/pgfmathcalc.code.tex
INPUT /usr/share/texlive/texmf-dist/tex/generic/pgf/math/pgfmathutil.code.tex
INPUT /usr/share/texlive/texmf-dist/tex/generic/pgf/math/pgfmathparser.code.tex
INPUT /usr/share/texlive/texmf-dist/tex/generic/pgf/math/pgfmathfunctions.code.tex
INPUT /usr/share/texlive/texmf-dist/tex/generic/pgf/math/pgfmathfunctions.basic.code.tex
INPUT /usr/share/texlive/texmf-dist/tex/generic/pgf/math/pgfmathfunctions.trigonometric.code.tex
INPUT /usr/share/texlive/texmf-dist/tex/generic/pgf/math/pgfmathfunctions.random.code.tex
INPUT /usr/share/texlive/texmf-dist/tex/generic/pgf/math/pgfmathfunctions.comparison.code.tex
INPUT /usr/share/texlive/texmf-dist/tex/generic/pgf/math/pgfmathfunctions.base.code.tex
INPUT /usr/share/texlive/texmf-dist/tex/generic/pgf/math/pgfmathfunctions.round.code.tex
INPUT /usr/share/texlive/texmf-dist/tex/generic/pgf/math/pgfmathfunctions.misc.code.tex
INPUT /usr/share/texlive/texmf-dist/tex/generic/pgf/math/pgfmathfunctions.integerarithmetics.code.tex
INPUT /usr/share/texlive/texmf-dist/tex/generic/pgf/math/pgfmathfloat.code.tex
INPUT /usr/share/texlive/texmf-dist/tex/generic/pgf/basiclayer/pgfcorepoints.code.tex
INPUT /usr/share/texlive/texmf-dist/tex/generic/pgf/basiclayer/pgfcorepathconstruct.code.tex
INPUT /usr/share/texlive/texmf-dist/tex/generic/pgf/basiclayer/pgfcorepathusage.code.tex
INPUT /usr/share/texlive/texmf-dist/tex/generic/pgf/basiclayer/pgfcorescopes.code.tex
INPUT /usr/share/texlive/texmf-dist/tex/generic/pgf/basiclayer/pgfcoregraphicstate.code.tex
INPUT /usr/share/texlive/texmf-dist/tex/generic/pgf/basiclayer/pgfcoretransformations.code.tex
INPUT /usr/share/texlive/texmf-dist/tex/generic/pgf/basiclayer/pgfcorequick.code.tex
INPUT /usr/share/texlive/texmf-dist/tex/generic/pgf/basiclayer/pgfcoreobjects.code.tex
INPUT /usr/share/texlive/texmf-dist/tex/generic/pgf/basiclayer/pgfcorepathprocessing.code.tex
INPUT /usr/share/texlive/texmf-dist/tex/generic/pgf/basiclayer/pgfcorearrows.code.tex
INPUT /usr/share/texlive/texmf-dist/tex/generic/pgf/basiclayer/pgfcoreshade.code.tex
INPUT /usr/share/texlive/texmf-dist/tex/generic/pgf/basiclayer/pgfcoreimage.code.tex
INPUT /usr/share/texlive/texmf-dist/tex/generic/pgf/basiclayer/pgfcoreexternal.code.tex
INPUT /usr/share/texlive/texmf-dist/tex/generic/pgf/basiclayer/pgfcorelayers.code.tex
INPUT /usr/share/texlive/texmf-dist/tex/generic/pgf/basiclayer/pgfcoretransparency.code.tex
INPUT /usr/share/texlive/texmf-dist/tex/generic/pgf/basiclayer/pgfcorepatterns.code.tex
INPUT /usr/share/texlive/texmf-dist/tex/latex/pgf/utilities/xxcolor.sty
INPUT /usr/share/texlive/texmf-dist/tex/latex/pgf/utilities/xxcolor.sty
INPUT /usr/share/texlive/texmf-dist/tex/generic/oberdiek/atbegshi.sty
INPUT /usr/share/texlive/texmf-dist/tex/generic/oberdiek/atbegshi.sty
INPUT /usr/share/texlive/texmf-dist/tex/generic/oberdiek/infwarerr.sty
INPUT /usr/share/texlive/texmf-dist/tex/generic/oberdiek/infwarerr.sty
INPUT /usr/share/texlive/texmf-dist/tex/generic/oberdiek/ltxcmds.sty
INPUT /usr/share/texlive/texmf-dist/tex/generic/oberdiek/ltxcmds.sty
INPUT /usr/share/texlive/texmf-dist/tex/latex/hyperref/hyperref.sty
INPUT /usr/share/texlive/texmf-dist/tex/latex/hyperref/hyperref.sty
INPUT /usr/share/texlive/texmf-dist/tex/generic/oberdiek/hobsub-hyperref.sty
INPUT /usr/share/texlive/texmf-dist/tex/generic/oberdiek/hobsub-hyperref.sty
INPUT /usr/share/texlive/texmf-dist/tex/generic/oberdiek/hobsub-hyperref.sty
INPUT /usr/share/texlive/texmf-dist/tex/generic/oberdiek/hobsub-generic.sty
INPUT /usr/share/texlive/texmf-dist/tex/generic/oberdiek/hobsub-generic.sty
INPUT /usr/share/texlive/texmf-dist/tex/latex/oberdiek/auxhook.sty
INPUT /usr/share/texlive/texmf-dist/tex/latex/oberdiek/auxhook.sty
INPUT /usr/share/texlive/texmf-dist/tex/latex/oberdiek/kvoptions.sty
INPUT /usr/share/texlive/texmf-dist/tex/latex/oberdiek/kvoptions.sty
INPUT /usr/share/texlive/texmf-dist/tex/latex/hyperref/pd1enc.def
INPUT /usr/share/texlive/texmf-dist/tex/latex/hyperref/pd1enc.def
INPUT /usr/share/texlive/texmf-dist/tex/latex/latexconfig/hyperref.cfg
INPUT /usr/share/texlive/texmf-dist/tex/latex/latexconfig/hyperref.cfg
INPUT /usr/share/texlive/texmf-dist/tex/latex/url/url.sty
INPUT /usr/share/texlive/texmf-dist/tex/latex/url/url.sty
INPUT /usr/share/texlive/texmf-dist/tex/latex/hyperref/hpdftex.def
INPUT /usr/share/texlive/texmf-dist/tex/latex/hyperref/hpdftex.def
INPUT /usr/share/texlive/texmf-dist/tex/latex/oberdiek/rerunfilecheck.sty
INPUT /usr/share/texlive/texmf-dist/tex/latex/oberdiek/rerunfilecheck.sty
INPUT /usr/share/texlive/texmf-dist/tex/latex/beamer/beamerbaserequires.sty
INPUT /usr/share/texlive/texmf-dist/tex/latex/beamer/beamerbaserequires.sty
INPUT /usr/share/texlive/texmf-dist/tex/latex/beamer/beamerbasecompatibility.sty
INPUT /usr/share/texlive/texmf-dist/tex/latex/beamer/beamerbasecompatibility.sty
INPUT /usr/share/texlive/texmf-dist/tex/latex/beamer/beamerbasefont.sty
INPUT /usr/share/texlive/texmf-dist/tex/latex/beamer/beamerbasefont.sty
INPUT /usr/share/texlive/texmf-dist/tex/latex/amsfonts/amssymb.sty
INPUT /usr/share/texlive/texmf-dist/tex/latex/amsfonts/amssymb.sty
INPUT /usr/share/texlive/texmf-dist/tex/latex/amsfonts/amsfonts.sty
INPUT /usr/share/texlive/texmf-dist/tex/latex/amsfonts/amsfonts.sty
INPUT /usr/share/texlive/texmf-dist/tex/latex/sansmathaccent/sansmathaccent.sty
INPUT /usr/share/texlive/texmf-dist/tex/latex/sansmathaccent/sansmathaccent.sty
INPUT /usr/share/texlive/texmf-dist/tex/latex/sansmathaccent/sansmathaccent.sty
INPUT /usr/share/texlive/texmf-dist/tex/latex/filehook/filehook.sty
INPUT /usr/share/texlive/texmf-dist/tex/latex/filehook/filehook.sty
INPUT /usr/share/texlive/texmf-dist/tex/latex/filehook/filehook.sty
INPUT /usr/share/texlive/texmf-dist/tex/latex/beamer/beamerbasetranslator.sty
INPUT /usr/share/texlive/texmf-dist/tex/latex/beamer/beamerbasetranslator.sty
INPUT /usr/share/texlive/texmf-dist/tex/latex/translator/translator.sty
INPUT /usr/share/texlive/texmf-dist/tex/latex/translator/translator.sty
INPUT /usr/share/texlive/texmf-dist/tex/latex/beamer/beamerbasemisc.sty
INPUT /usr/share/texlive/texmf-dist/tex/latex/beamer/beamerbasemisc.sty
INPUT /usr/share/texlive/texmf-dist/tex/latex/beamer/beamerbasetwoscreens.sty
INPUT /usr/share/texlive/texmf-dist/tex/latex/beamer/beamerbasetwoscreens.sty
INPUT /usr/share/texlive/texmf-dist/tex/latex/beamer/beamerbaseoverlay.sty
INPUT /usr/share/texlive/texmf-dist/tex/latex/beamer/beamerbaseoverlay.sty
INPUT /usr/share/texlive/texmf-dist/tex/latex/beamer/beamerbasetitle.sty
INPUT /usr/share/texlive/texmf-dist/tex/latex/beamer/beamerbasetitle.sty
INPUT /usr/share/texlive/texmf-dist/tex/latex/beamer/beamerbasesection.sty
INPUT /usr/share/texlive/texmf-dist/tex/latex/beamer/beamerbasesection.sty
INPUT /usr/share/texlive/texmf-dist/tex/latex/beamer/beamerbaseframe.sty
INPUT /usr/share/texlive/texmf-dist/tex/latex/beamer/beamerbaseframe.sty
INPUT /usr/share/texlive/texmf-dist/tex/latex/beamer/beamerbaseverbatim.sty
INPUT /usr/share/texlive/texmf-dist/tex/latex/beamer/beamerbaseverbatim.sty
INPUT /usr/share/texlive/texmf-dist/tex/latex/beamer/beamerbaseframesize.sty
INPUT /usr/share/texlive/texmf-dist/tex/latex/beamer/beamerbaseframesize.sty
INPUT /usr/share/texlive/texmf-dist/tex/latex/beamer/beamerbaseframecomponents.sty
INPUT /usr/share/texlive/texmf-dist/tex/latex/beamer/beamerbaseframecomponents.sty
INPUT /usr/share/texlive/texmf-dist/tex/latex/beamer/beamerbasecolor.sty
INPUT /usr/share/texlive/texmf-dist/tex/latex/beamer/beamerbasecolor.sty
INPUT /usr/share/texlive/texmf-dist/tex/latex/beamer/beamerbasenotes.sty
INPUT /usr/share/texlive/texmf-dist/tex/latex/beamer/beamerbasenotes.sty
INPUT /usr/share/texlive/texmf-dist/tex/latex/beamer/beamerbasetoc.sty
INPUT /usr/share/texlive/texmf-dist/tex/latex/beamer/beamerbasetoc.sty
INPUT /usr/share/texlive/texmf-dist/tex/latex/beamer/beamerbasetemplates.sty
INPUT /usr/share/texlive/texmf-dist/tex/latex/beamer/beamerbasetemplates.sty
INPUT /usr/share/texlive/texmf-dist/tex/latex/beamer/beamerbaseauxtemplates.sty
INPUT /usr/share/texlive/texmf-dist/tex/latex/beamer/beamerbaseauxtemplates.sty
INPUT /usr/share/texlive/texmf-dist/tex/latex/beamer/beamerbaseboxes.sty
INPUT /usr/share/texlive/texmf-dist/tex/latex/beamer/beamerbaseboxes.sty
INPUT /usr/share/texlive/texmf-dist/tex/latex/beamer/beamerbaselocalstructure.sty
INPUT /usr/share/texlive/texmf-dist/tex/latex/beamer/beamerbaselocalstructure.sty
INPUT /usr/share/texlive/texmf-dist/tex/latex/tools/enumerate.sty
INPUT /usr/share/texlive/texmf-dist/tex/latex/tools/enumerate.sty
INPUT /usr/share/texlive/texmf-dist/tex/latex/beamer/beamerbasenavigation.sty
INPUT /usr/share/texlive/texmf-dist/tex/latex/beamer/beamerbasenavigation.sty
INPUT /usr/share/texlive/texmf-dist/tex/latex/beamer/beamerbasetheorems.sty
INPUT /usr/share/texlive/texmf-dist/tex/latex/beamer/beamerbasetheorems.sty
INPUT /usr/share/texlive/texmf-dist/tex/latex/amsmath/amsmath.sty
INPUT /usr/share/texlive/texmf-dist/tex/latex/amsmath/amsmath.sty
INPUT /usr/share/texlive/texmf-dist/tex/latex/amsmath/amstext.sty
INPUT /usr/share/texlive/texmf-dist/tex/latex/amsmath/amstext.sty
INPUT /usr/share/texlive/texmf-dist/tex/latex/amsmath/amsgen.sty
INPUT /usr/share/texlive/texmf-dist/tex/latex/amsmath/amsgen.sty
INPUT /usr/share/texlive/texmf-dist/tex/latex/amsmath/amsbsy.sty
INPUT /usr/share/texlive/texmf-dist/tex/latex/amsmath/amsbsy.sty
INPUT /usr/share/texlive/texmf-dist/tex/latex/amsmath/amsopn.sty
INPUT /usr/share/texlive/texmf-dist/tex/latex/amsmath/amsopn.sty
INPUT /usr/share/texlive/texmf-dist/tex/latex/amscls/amsthm.sty
INPUT /usr/share/texlive/texmf-dist/tex/latex/amscls/amsthm.sty
INPUT /usr/share/texlive/texmf-dist/tex/latex/beamer/beamerbasethemes.sty
INPUT /usr/share/texlive/texmf-dist/tex/latex/beamer/beamerbasethemes.sty
INPUT /usr/share/texlive/texmf-dist/fonts/tfm/public/cm/cmss10.tfm
INPUT /usr/share/texlive/texmf-dist/tex/latex/beamer/beamerthemedefault.sty
INPUT /usr/share/texlive/texmf-dist/tex/latex/beamer/beamerthemedefault.sty
INPUT /usr/share/texlive/texmf-dist/tex/latex/beamer/beamerfontthemedefault.sty
INPUT /usr/share/texlive/texmf-dist/tex/latex/beamer/beamerfontthemedefault.sty
INPUT /usr/share/texlive/texmf-dist/tex/latex/beamer/beamercolorthemedefault.sty
INPUT /usr/share/texlive/texmf-dist/tex/latex/beamer/beamercolorthemedefault.sty
INPUT /usr/share/texlive/texmf-dist/tex/latex/beamer/beamerinnerthemedefault.sty
INPUT /usr/share/texlive/texmf-dist/tex/latex/beamer/beamerinnerthemedefault.sty
INPUT /usr/share/texlive/texmf-dist/tex/latex/beamer/beamericonbook.pdf
OUTPUT /home/fasm22/workspace/ProjectGrad/phoenix/Thesis/Avances/Defensa/presentation.pdf
INPUT /usr/share/texlive/texmf-dist/tex/latex/beamer/beamericonbook.pdf
INPUT /usr/share/texlive/texmf-dist/tex/latex/beamer/beamericonbook.20.pdf
INPUT /usr/share/texlive/texmf-dist/tex/latex/beamer/beamericonbook.20.pdf
INPUT /usr/share/texlive/texmf-dist/tex/latex/beamer/beamericonarticle.pdf
INPUT /usr/share/texlive/texmf-dist/tex/latex/beamer/beamericonarticle.pdf
INPUT /usr/share/texlive/texmf-dist/tex/latex/beamer/beamericonarticle.20.pdf
INPUT /usr/share/texlive/texmf-dist/tex/latex/beamer/beamericonarticle.20.pdf
INPUT /usr/share/texlive/texmf-dist/tex/latex/beamer/beamericononline.pdf
INPUT /usr/share/texlive/texmf-dist/tex/latex/beamer/beamericononline.pdf
INPUT /usr/share/texlive/texmf-dist/tex/latex/beamer/beamericononline.20.pdf
INPUT /usr/share/texlive/texmf-dist/tex/latex/beamer/beamericononline.20.pdf
INPUT /usr/share/texlive/texmf-dist/tex/latex/beamer/beamerouterthemedefault.sty
INPUT /usr/share/texlive/texmf-dist/tex/latex/beamer/beamerouterthemedefault.sty
INPUT /usr/share/texlive/texmf-dist/tex/generic/babel/babel.sty
INPUT /usr/share/texlive/texmf-dist/tex/generic/babel/babel.sty
INPUT /usr/share/texlive/texmf-dist/tex/generic/babel/switch.def
INPUT /usr/share/texlive/texmf-dist/tex/generic/babel-english/english.ldf
INPUT /usr/share/texlive/texmf-dist/tex/generic/babel-english/english.ldf
INPUT /usr/share/texlive/texmf-dist/tex/generic/babel/babel.def
INPUT /usr/share/texlive/texmf-dist/tex/generic/babel/txtbabel.def
INPUT /usr/share/texlive/texmf-dist/tex/latex/base/inputenc.sty
INPUT /usr/share/texlive/texmf-dist/tex/latex/base/inputenc.sty
INPUT /usr/share/texlive/texmf-dist/tex/latex/base/utf8.def
INPUT /usr/share/texlive/texmf-dist/tex/latex/base/utf8.def
INPUT /usr/share/texlive/texmf-dist/tex/latex/base/t1enc.dfu
INPUT /usr/share/texlive/texmf-dist/tex/latex/base/t1enc.dfu
INPUT /usr/share/texlive/texmf-dist/tex/latex/base/ot1enc.dfu
INPUT /usr/share/texlive/texmf-dist/tex/latex/base/ot1enc.dfu
INPUT /usr/share/texlive/texmf-dist/tex/latex/base/omsenc.dfu
INPUT /usr/share/texlive/texmf-dist/tex/latex/base/omsenc.dfu
INPUT /usr/share/texlive/texmf-dist/tex/latex/base/textcomp.sty
INPUT /usr/share/texlive/texmf-dist/tex/latex/base/textcomp.sty
INPUT /usr/share/texlive/texmf-dist/tex/latex/base/ts1enc.def
INPUT /usr/share/texlive/texmf-dist/tex/latex/base/ts1enc.def
INPUT /usr/share/texlive/texmf-dist/tex/latex/base/ts1enc.dfu
INPUT /usr/share/texlive/texmf-dist/tex/latex/base/ts1enc.dfu
INPUT /usr/share/texlive/texmf-dist/tex/latex/tools/multicol.sty
INPUT /usr/share/texlive/texmf-dist/tex/latex/tools/multicol.sty
INPUT /usr/share/texlive/texmf-dist/tex/latex/pgf/frontendlayer/tikz.sty
INPUT /usr/share/texlive/texmf-dist/tex/latex/pgf/frontendlayer/tikz.sty
INPUT /usr/share/texlive/texmf-dist/tex/latex/pgf/basiclayer/pgf.sty
INPUT /usr/share/texlive/texmf-dist/tex/latex/pgf/basiclayer/pgf.sty
INPUT /usr/share/texlive/texmf-dist/tex/generic/pgf/modules/pgfmoduleshapes.code.tex
INPUT /usr/share/texlive/texmf-dist/tex/generic/pgf/modules/pgfmoduleplot.code.tex
INPUT /usr/share/texlive/texmf-dist/tex/latex/pgf/compatibility/pgfcomp-version-0-65.sty
INPUT /usr/share/texlive/texmf-dist/tex/latex/pgf/compatibility/pgfcomp-version-0-65.sty
INPUT /usr/share/texlive/texmf-dist/tex/latex/pgf/compatibility/pgfcomp-version-1-18.sty
INPUT /usr/share/texlive/texmf-dist/tex/latex/pgf/compatibility/pgfcomp-version-1-18.sty
INPUT /usr/share/texlive/texmf-dist/tex/latex/pgf/utilities/pgffor.sty
INPUT /usr/share/texlive/texmf-dist/tex/latex/pgf/utilities/pgffor.sty
INPUT /usr/share/texlive/texmf-dist/tex/latex/pgf/utilities/pgfkeys.sty
INPUT /usr/share/texlive/texmf-dist/tex/latex/pgf/utilities/pgfkeys.sty
INPUT /usr/share/texlive/texmf-dist/tex/generic/pgf/utilities/pgfkeys.code.tex
INPUT /usr/share/texlive/texmf-dist/tex/generic/pgf/utilities/pgfkeys.code.tex
INPUT /usr/share/texlive/texmf-dist/tex/latex/pgf/math/pgfmath.sty
INPUT /usr/share/texlive/texmf-dist/tex/latex/pgf/math/pgfmath.sty
INPUT /usr/share/texlive/texmf-dist/tex/generic/pgf/math/pgfmath.code.tex
INPUT /usr/share/texlive/texmf-dist/tex/generic/pgf/math/pgfmath.code.tex
INPUT /usr/share/texlive/texmf-dist/tex/generic/pgf/utilities/pgffor.code.tex
INPUT /usr/share/texlive/texmf-dist/tex/generic/pgf/utilities/pgffor.code.tex
INPUT /usr/share/texlive/texmf-dist/tex/generic/pgf/math/pgfmath.code.tex
INPUT /usr/share/texlive/texmf-dist/tex/generic/pgf/frontendlayer/tikz/tikz.code.tex
INPUT /usr/share/texlive/texmf-dist/tex/generic/pgf/frontendlayer/tikz/tikz.code.tex
INPUT /usr/share/texlive/texmf-dist/tex/generic/pgf/libraries/pgflibraryplothandlers.code.tex
INPUT /usr/share/texlive/texmf-dist/tex/generic/pgf/libraries/pgflibraryplothandlers.code.tex
INPUT /usr/share/texlive/texmf-dist/tex/generic/pgf/modules/pgfmodulematrix.code.tex
INPUT /usr/share/texlive/texmf-dist/tex/generic/pgf/frontendlayer/tikz/libraries/tikzlibrarytopaths.code.tex
INPUT /usr/share/texlive/texmf-dist/tex/generic/pgf/frontendlayer/tikz/libraries/tikzlibrarytopaths.code.tex
INPUT /usr/share/texlive/texmf-dist/tex/latex/pgfplots/pgfplots.sty
INPUT /usr/share/texlive/texmf-dist/tex/latex/pgfplots/pgfplots.sty
INPUT /usr/share/texlive/texmf-dist/tex/generic/pgfplots/pgfplots.revision.tex
INPUT /usr/share/texlive/texmf-dist/tex/generic/pgfplots/pgfplots.revision.tex
INPUT /usr/share/texlive/texmf-dist/tex/generic/pgf/systemlayer/pgfsys-luatex.def
INPUT /usr/share/texlive/texmf-dist/tex/generic/pgfplots/pgfplots.code.tex
INPUT /usr/share/texlive/texmf-dist/tex/generic/pgfplots/pgfplotscore.code.tex
INPUT /usr/share/texlive/texmf-dist/tex/generic/pgfplots/sys/pgfplotssysgeneric.code.tex
INPUT /usr/share/texlive/texmf-dist/tex/generic/pgfplots/libs/pgfplotslibrary.code.tex
INPUT /usr/share/texlive/texmf-dist/tex/generic/pgfplots/oldpgfcompatib/pgfplotsoldpgfsupp_loader.code.tex
INPUT /usr/share/texlive/texmf-dist/tex/generic/pgf/libraries/pgflibraryfpu.code.tex
INPUT /usr/share/texlive/texmf-dist/tex/generic/pgf/libraries/pgflibraryfpu.code.tex
INPUT /usr/share/texlive/texmf-dist/tex/generic/pgf/libraries/pgflibraryfpu.code.tex
INPUT /usr/share/texlive/texmf-dist/tex/generic/pgfplots/oldpgfcompatib/pgfplotsoldpgfsupp_pgflibraryfpu.code.tex
INPUT /usr/share/texlive/texmf-dist/tex/generic/pgfplots/oldpgfcompatib/pgfplotsoldpgfsupp_pgfmathfloat.code.tex
INPUT /usr/share/texlive/texmf-dist/tex/generic/pgfplots/util/pgfplotsutil.code.tex
INPUT /usr/share/texlive/texmf-dist/tex/generic/pgfplots/liststructure/pgfplotsliststructure.code.tex
INPUT /usr/share/texlive/texmf-dist/tex/generic/pgfplots/liststructure/pgfplotsliststructureext.code.tex
INPUT /usr/share/texlive/texmf-dist/tex/generic/pgfplots/liststructure/pgfplotsarray.code.tex
INPUT /usr/share/texlive/texmf-dist/tex/generic/pgfplots/liststructure/pgfplotsmatrix.code.tex
INPUT /usr/share/texlive/texmf-dist/tex/generic/pgfplots/numtable/pgfplotstableshared.code.tex
INPUT /usr/share/texlive/texmf-dist/tex/generic/pgfplots/liststructure/pgfplotsdeque.code.tex
INPUT /usr/share/texlive/texmf-dist/tex/generic/pgfplots/util/pgfplotsbinary.code.tex
INPUT /usr/share/texlive/texmf-dist/tex/generic/pgfplots/util/pgfplotsbinary.data.code.tex
INPUT /usr/share/texlive/texmf-dist/tex/generic/pgfplots/util/pgfplotsutil.verb.code.tex
INPUT /usr/share/texlive/texmf-dist/tex/generic/pgfplots/libs/pgflibrarypgfplots.surfshading.code.tex
INPUT /usr/share/texlive/texmf-dist/tex/generic/pgfplots/sys/pgflibrarypgfplots.surfshading.pgfsys-pdftex.def
INPUT /usr/share/texlive/texmf-dist/tex/generic/pgfplots/sys/pgflibrarypgfplots.surfshading.pgfsys-pdftex.def
INPUT /usr/share/texlive/texmf-dist/tex/generic/pgfplots/util/pgfplotscolormap.code.tex
INPUT /usr/share/texlive/texmf-dist/tex/generic/pgfplots/util/pgfplotscolor.code.tex
INPUT /usr/share/texlive/texmf-dist/tex/generic/pgfplots/pgfplotsstackedplots.code.tex
INPUT /usr/share/texlive/texmf-dist/tex/generic/pgfplots/pgfplotsplothandlers.code.tex
INPUT /usr/share/texlive/texmf-dist/tex/generic/pgfplots/pgfplotsmeshplothandler.code.tex
INPUT /usr/share/texlive/texmf-dist/tex/generic/pgfplots/pgfplotsmeshplotimage.code.tex
INPUT /usr/share/texlive/texmf-dist/tex/generic/pgfplots/pgfplots.scaling.code.tex
INPUT /usr/share/texlive/texmf-dist/tex/generic/pgfplots/pgfplotscoordprocessing.code.tex
INPUT /usr/share/texlive/texmf-dist/tex/generic/pgfplots/pgfplots.errorbars.code.tex
INPUT /usr/share/texlive/texmf-dist/tex/generic/pgfplots/pgfplots.markers.code.tex
INPUT /usr/share/texlive/texmf-dist/tex/generic/pgfplots/pgfplotsticks.code.tex
INPUT /usr/share/texlive/texmf-dist/tex/generic/pgfplots/pgfplots.paths.code.tex
INPUT /usr/share/texlive/texmf-dist/tex/generic/pgf/frontendlayer/tikz/libraries/tikzlibrarydecorations.code.tex
INPUT /usr/share/texlive/texmf-dist/tex/generic/pgf/frontendlayer/tikz/libraries/tikzlibrarydecorations.code.tex
INPUT /usr/share/texlive/texmf-dist/tex/generic/pgf/modules/pgfmoduledecorations.code.tex
INPUT /usr/share/texlive/texmf-dist/tex/generic/pgf/frontendlayer/tikz/libraries/tikzlibrarydecorations.pathmorphing.code.tex
INPUT /usr/share/texlive/texmf-dist/tex/generic/pgf/frontendlayer/tikz/libraries/tikzlibrarydecorations.pathmorphing.code.tex
INPUT /usr/share/texlive/texmf-dist/tex/generic/pgf/libraries/decorations/pgflibrarydecorations.pathmorphing.code.tex
INPUT /usr/share/texlive/texmf-dist/tex/generic/pgf/libraries/decorations/pgflibrarydecorations.pathmorphing.code.tex
INPUT /usr/share/texlive/texmf-dist/tex/generic/pgf/frontendlayer/tikz/libraries/tikzlibrarydecorations.pathreplacing.code.tex
INPUT /usr/share/texlive/texmf-dist/tex/generic/pgf/frontendlayer/tikz/libraries/tikzlibrarydecorations.pathreplacing.code.tex
INPUT /usr/share/texlive/texmf-dist/tex/generic/pgf/libraries/decorations/pgflibrarydecorations.pathreplacing.code.tex
INPUT /usr/share/texlive/texmf-dist/tex/generic/pgf/libraries/decorations/pgflibrarydecorations.pathreplacing.code.tex
INPUT /usr/share/texlive/texmf-dist/tex/generic/pgf/frontendlayer/tikz/libraries/tikzlibraryplotmarks.code.tex
INPUT /usr/share/texlive/texmf-dist/tex/generic/pgf/frontendlayer/tikz/libraries/tikzlibraryplotmarks.code.tex
INPUT /usr/share/texlive/texmf-dist/tex/generic/pgf/libraries/pgflibraryplotmarks.code.tex
INPUT /usr/share/texlive/texmf-dist/tex/generic/pgf/libraries/pgflibraryplotmarks.code.tex
INPUT /usr/share/texlive/texmf-dist/tex/latex/biblatex/biblatex.sty
INPUT /usr/share/texlive/texmf-dist/tex/latex/biblatex/biblatex.sty
INPUT /usr/share/texlive/texmf-dist/tex/latex/logreq/logreq.sty
INPUT /usr/share/texlive/texmf-dist/tex/latex/logreq/logreq.sty
INPUT /usr/share/texlive/texmf-dist/tex/latex/logreq/logreq.def
INPUT /usr/share/texlive/texmf-dist/tex/latex/logreq/logreq.def
INPUT /usr/share/texlive/texmf-dist/tex/latex/base/ifthen.sty
INPUT /usr/share/texlive/texmf-dist/tex/latex/base/ifthen.sty
INPUT /usr/share/texlive/texmf-dist/tex/generic/xstring/xstring.sty
INPUT /usr/share/texlive/texmf-dist/tex/generic/xstring/xstring.sty
INPUT /usr/share/texlive/texmf-dist/tex/generic/xstring/xstring.tex
INPUT /usr/share/texlive/texmf-dist/tex/latex/biblatex/blx-dm.def
INPUT /usr/share/texlive/texmf-dist/tex/latex/biblatex/blx-dm.def
INPUT /usr/share/texlive/texmf-dist/tex/latex/biblatex/blx-compat.def
INPUT /usr/share/texlive/texmf-dist/tex/latex/biblatex/blx-compat.def
INPUT /usr/share/texlive/texmf-dist/tex/latex/biblatex/biblatex.def
INPUT /usr/share/texlive/texmf-dist/tex/latex/biblatex/biblatex.def
INPUT /usr/share/texlive/texmf-dist/tex/latex/biblatex-ieee/ieee.bbx
INPUT /usr/share/texlive/texmf-dist/tex/latex/biblatex-ieee/ieee.bbx
INPUT /usr/share/texlive/texmf-dist/tex/latex/biblatex/bbx/numeric-comp.bbx
INPUT /usr/share/texlive/texmf-dist/tex/latex/biblatex/bbx/numeric-comp.bbx
INPUT /usr/share/texlive/texmf-dist/tex/latex/biblatex/bbx/numeric.bbx
INPUT /usr/share/texlive/texmf-dist/tex/latex/biblatex/bbx/numeric.bbx
INPUT /usr/share/texlive/texmf-dist/tex/latex/biblatex/bbx/standard.bbx
INPUT /usr/share/texlive/texmf-dist/tex/latex/biblatex/bbx/standard.bbx
INPUT /usr/share/texlive/texmf-dist/tex/latex/biblatex/lbx/english.lbx
INPUT /usr/share/texlive/texmf-dist/tex/latex/biblatex/lbx/english.lbx
INPUT /usr/share/texlive/texmf-dist/tex/latex/biblatex-ieee/ieee.cbx
INPUT /usr/share/texlive/texmf-dist/tex/latex/biblatex-ieee/ieee.cbx
INPUT /usr/share/texlive/texmf-dist/tex/latex/biblatex/cbx/numeric-comp.cbx
INPUT /usr/share/texlive/texmf-dist/tex/latex/biblatex/cbx/numeric-comp.cbx
INPUT /usr/share/texlive/texmf-dist/tex/latex/biblatex/biblatex.cfg
INPUT /usr/share/texlive/texmf-dist/tex/latex/biblatex/biblatex.cfg
INPUT /usr/share/texlive/texmf-dist/tex/latex/beamer/beamerthemeWarsaw.sty
INPUT /usr/share/texlive/texmf-dist/tex/latex/beamer/beamerthemeWarsaw.sty
INPUT /usr/share/texlive/texmf-dist/tex/latex/beamer/beamerinnerthemerounded.sty
INPUT /usr/share/texlive/texmf-dist/tex/latex/beamer/beamerinnerthemerounded.sty
INPUT /usr/share/texlive/texmf-dist/tex/latex/beamer/beamerouterthemeshadow.sty
INPUT /usr/share/texlive/texmf-dist/tex/latex/beamer/beamerouterthemeshadow.sty
INPUT /usr/share/texlive/texmf-dist/tex/latex/beamer/beamerouterthemesplit.sty
INPUT /usr/share/texlive/texmf-dist/tex/latex/beamer/beamerouterthemesplit.sty
INPUT /usr/share/texlive/texmf-dist/tex/latex/beamer/beamercolorthemeorchid.sty
INPUT /usr/share/texlive/texmf-dist/tex/latex/beamer/beamercolorthemeorchid.sty
INPUT /usr/share/texlive/texmf-dist/tex/latex/beamer/beamercolorthemewhale.sty
INPUT /usr/share/texlive/texmf-dist/tex/latex/beamer/beamercolorthemewhale.sty
INPUT /usr/share/texlive/texmf-dist/tex/latex/beamer/beamercolorthemestructure.sty
INPUT /usr/share/texlive/texmf-dist/tex/latex/beamer/beamercolorthemestructure.sty
INPUT /usr/share/texlive/texmf-dist/tex/latex/jknapltx/mathrsfs.sty
INPUT /usr/share/texlive/texmf-dist/tex/latex/jknapltx/mathrsfs.sty
INPUT /usr/share/texlive/texmf-dist/tex/latex/biblatex/lbx/english.lbx
INPUT /usr/share/texlive/texmf-dist/tex/latex/biblatex/lbx/english.lbx
INPUT /home/fasm22/workspace/ProjectGrad/phoenix/Thesis/Avances/Defensa/presentation.aux
INPUT /home/fasm22/workspace/ProjectGrad/phoenix/Thesis/Avances/Defensa/presentation.aux
OUTPUT /home/fasm22/workspace/ProjectGrad/phoenix/Thesis/Avances/Defensa/presentation.aux
INPUT /usr/share/texlive/texmf-dist/tex/latex/base/ts1cmr.fd
INPUT /usr/share/texlive/texmf-dist/tex/latex/base/ts1cmr.fd
INPUT /usr/share/texlive/texmf-dist/tex/context/base/mkii/supp-pdf.mkii
INPUT /usr/share/texlive/texmf-dist/tex/context/base/mkii/supp-pdf.mkii
INPUT /usr/share/texlive/texmf-dist/tex/latex/oberdiek/epstopdf-base.sty
INPUT /usr/share/texlive/texmf-dist/tex/latex/oberdiek/epstopdf-base.sty
INPUT /usr/share/texlive/texmf-dist/tex/latex/oberdiek/grfext.sty
INPUT /usr/share/texlive/texmf-dist/tex/latex/oberdiek/grfext.sty
INPUT /usr/share/texlive/texmf-dist/tex/latex/latexconfig/epstopdf-sys.cfg
INPUT /usr/share/texlive/texmf-dist/tex/latex/latexconfig/epstopdf-sys.cfg
INPUT /usr/share/texlive/texmf-dist/tex/latex/hyperref/nameref.sty
INPUT /usr/share/texlive/texmf-dist/tex/latex/hyperref/nameref.sty
INPUT /usr/share/texlive/texmf-dist/tex/generic/oberdiek/gettitlestring.sty
INPUT /usr/share/texlive/texmf-dist/tex/generic/oberdiek/gettitlestring.sty
INPUT /home/fasm22/workspace/ProjectGrad/phoenix/Thesis/Avances/Defensa/presentation.out
INPUT /home/fasm22/workspace/ProjectGrad/phoenix/Thesis/Avances/Defensa/presentation.out
INPUT /home/fasm22/workspace/ProjectGrad/phoenix/Thesis/Avances/Defensa/presentation.out
INPUT /home/fasm22/workspace/ProjectGrad/phoenix/Thesis/Avances/Defensa/presentation.out
INPUT /home/fasm22/workspace/ProjectGrad/phoenix/Thesis/Avances/Defensa/presentation.out
INPUT /home/fasm22/workspace/ProjectGrad/phoenix/Thesis/Avances/Defensa/presentation.out
OUTPUT /home/fasm22/workspace/ProjectGrad/phoenix/Thesis/Avances/Defensa/presentation.out
INPUT /usr/share/texlive/texmf-dist/tex/latex/translator/translator-basic-dictionary-English.dict
INPUT /usr/share/texlive/texmf-dist/tex/latex/translator/translator-basic-dictionary-English.dict
INPUT /usr/share/texlive/texmf-dist/tex/latex/translator/translator-bibliography-dictionary-English.dict
INPUT /usr/share/texlive/texmf-dist/tex/latex/translator/translator-bibliography-dictionary-English.dict
INPUT /usr/share/texlive/texmf-dist/tex/latex/translator/translator-environment-dictionary-English.dict
INPUT /usr/share/texlive/texmf-dist/tex/latex/translator/translator-environment-dictionary-English.dict
INPUT /usr/share/texlive/texmf-dist/tex/latex/translator/translator-months-dictionary-English.dict
INPUT /usr/share/texlive/texmf-dist/tex/latex/translator/translator-months-dictionary-English.dict
INPUT /usr/share/texlive/texmf-dist/tex/latex/translator/translator-numbers-dictionary-English.dict
INPUT /usr/share/texlive/texmf-dist/tex/latex/translator/translator-numbers-dictionary-English.dict
INPUT /usr/share/texlive/texmf-dist/tex/latex/translator/translator-theorem-dictionary-English.dict
INPUT /usr/share/texlive/texmf-dist/tex/latex/translator/translator-theorem-dictionary-English.dict
OUTPUT /home/fasm22/workspace/ProjectGrad/phoenix/Thesis/Avances/Defensa/presentation.bcf
INPUT /home/fasm22/workspace/ProjectGrad/phoenix/Thesis/Avances/Defensa/presentation.bbl
INPUT /home/fasm22/workspace/ProjectGrad/phoenix/Thesis/Avances/Defensa/presentation.bbl
INPUT /home/fasm22/workspace/ProjectGrad/phoenix/Thesis/Avances/Defensa/presentation.bbl
INPUT /home/fasm22/workspace/ProjectGrad/phoenix/Thesis/Avances/Defensa/presentation.nav
INPUT /home/fasm22/workspace/ProjectGrad/phoenix/Thesis/Avances/Defensa/presentation.nav
INPUT /usr/share/texlive/texmf-dist/fonts/tfm/public/cm/cmss8.tfm
INPUT /usr/share/texlive/texmf-dist/fonts/tfm/public/cm/cmss8.tfm
INPUT /usr/share/texlive/texmf-dist/fonts/tfm/public/cm/cmmi6.tfm
INPUT /usr/share/texlive/texmf-dist/fonts/tfm/public/cm/cmsy6.tfm
INPUT /usr/share/texlive/texmf-dist/fonts/tfm/public/amsfonts/cmextra/cmex7.tfm
INPUT /usr/share/texlive/texmf-dist/fonts/tfm/public/amsfonts/cmextra/cmex7.tfm
INPUT /usr/share/texlive/texmf-dist/tex/latex/amsfonts/umsa.fd
INPUT /usr/share/texlive/texmf-dist/tex/latex/amsfonts/umsa.fd
INPUT /usr/share/texlive/texmf-dist/fonts/tfm/public/amsfonts/symbols/msam7.tfm
INPUT /usr/share/texlive/texmf-dist/fonts/tfm/public/amsfonts/symbols/msam5.tfm
INPUT /usr/share/texlive/texmf-dist/tex/latex/amsfonts/umsb.fd
INPUT /usr/share/texlive/texmf-dist/tex/latex/amsfonts/umsb.fd
INPUT /usr/share/texlive/texmf-dist/fonts/tfm/public/amsfonts/symbols/msbm7.tfm
INPUT /usr/share/texlive/texmf-dist/fonts/tfm/public/amsfonts/symbols/msbm5.tfm
INPUT /usr/share/texlive/texmf-dist/tex/latex/jknapltx/ursfs.fd
INPUT /usr/share/texlive/texmf-dist/tex/latex/jknapltx/ursfs.fd
INPUT /usr/share/texlive/texmf-dist/fonts/tfm/public/rsfs/rsfs5.tfm
INPUT /usr/share/texlive/texmf-dist/fonts/tfm/public/rsfs/rsfs5.tfm
INPUT /usr/share/texlive/texmf-dist/tex/latex/sansmathaccent/ot1mathkerncmss.fd
INPUT /usr/share/texlive/texmf-dist/tex/latex/sansmathaccent/ot1mathkerncmss.fd
INPUT /usr/share/texlive/texmf-dist/fonts/tfm/public/sansmathaccent/mathkerncmssi8.tfm
INPUT /usr/share/texlive/texmf-dist/fonts/tfm/public/sansmathaccent/mathkerncmssi8.tfm
INPUT /usr/share/texlive/texmf-dist/fonts/tfm/public/cm/cmss12.tfm
INPUT /usr/share/texlive/texmf-dist/fonts/tfm/public/cm/cmss8.tfm
INPUT /usr/share/texlive/texmf-dist/fonts/tfm/public/cm/cmss8.tfm
INPUT /var/lib/texmf/fonts/map/pdftex/updmap/pdftex.map
INPUT /home/fasm22/workspace/ProjectGrad/phoenix/Thesis/Avances/Defensa/presentation.toc
INPUT /home/fasm22/workspace/ProjectGrad/phoenix/Thesis/Avances/Defensa/presentation.toc
INPUT /home/fasm22/workspace/ProjectGrad/phoenix/Thesis/Avances/Defensa/presentation.toc
INPUT /home/fasm22/workspace/ProjectGrad/phoenix/Thesis/Avances/Defensa/presentation.toc
INPUT /home/fasm22/workspace/ProjectGrad/phoenix/Thesis/Avances/Defensa/./fig/kit_logo.pdf
INPUT ./fig/kit_logo.pdf
INPUT ./fig/kit_logo.pdf
INPUT /home/fasm22/workspace/ProjectGrad/phoenix/Thesis/Avances/Defensa/./fig/sage_lena.png
INPUT ./fig/sage_lena.png
INPUT ./fig/sage_lena.png
INPUT /usr/share/texlive/texmf-dist/fonts/tfm/public/cm/cmss10.tfm
INPUT /usr/share/texlive/texmf-dist/fonts/tfm/public/cm/cmmi10.tfm
INPUT /usr/share/texlive/texmf-dist/fonts/tfm/public/cm/cmmi8.tfm
INPUT /usr/share/texlive/texmf-dist/fonts/tfm/public/cm/cmsy10.tfm
INPUT /usr/share/texlive/texmf-dist/fonts/tfm/public/cm/cmsy8.tfm
INPUT /usr/share/texlive/texmf-dist/fonts/tfm/public/cm/cmex10.tfm
INPUT /usr/share/texlive/texmf-dist/fonts/tfm/public/amsfonts/cmextra/cmex8.tfm
INPUT /usr/share/texlive/texmf-dist/fonts/tfm/public/amsfonts/symbols/msam10.tfm
INPUT /usr/share/texlive/texmf-dist/fonts/tfm/public/amsfonts/symbols/msam10.tfm
INPUT /usr/share/texlive/texmf-dist/fonts/tfm/public/amsfonts/symbols/msbm10.tfm
INPUT /usr/share/texlive/texmf-dist/fonts/tfm/public/amsfonts/symbols/msbm10.tfm
INPUT /usr/share/texlive/texmf-dist/fonts/tfm/public/rsfs/rsfs10.tfm
INPUT /usr/share/texlive/texmf-dist/fonts/tfm/public/rsfs/rsfs10.tfm
INPUT /usr/share/texlive/texmf-dist/fonts/tfm/public/sansmathaccent/mathkerncmssi10.tfm
INPUT /usr/share/texlive/texmf-dist/fonts/tfm/public/sansmathaccent/mathkerncmssi8.tfm
INPUT /usr/share/texlive/texmf-dist/fonts/tfm/public/cm/cmss9.tfm
INPUT /usr/share/texlive/texmf-dist/fonts/tfm/public/cm/cmmi9.tfm
INPUT /usr/share/texlive/texmf-dist/fonts/tfm/public/cm/cmsy9.tfm
INPUT /usr/share/texlive/texmf-dist/fonts/tfm/public/amsfonts/cmextra/cmex9.tfm
INPUT /usr/share/texlive/texmf-dist/fonts/tfm/public/amsfonts/symbols/msam10.tfm
INPUT /usr/share/texlive/texmf-dist/fonts/tfm/public/amsfonts/symbols/msbm10.tfm
INPUT /usr/share/texlive/texmf-dist/fonts/tfm/public/rsfs/rsfs10.tfm
INPUT /usr/share/texlive/texmf-dist/fonts/tfm/public/sansmathaccent/mathkerncmssi9.tfm
INPUT /usr/share/texlive/texmf-dist/fonts/tfm/public/cm/cmssi9.tfm
INPUT /usr/share/texlive/texmf-dist/fonts/tfm/public/cm/cmssi10.tfm
INPUT /usr/share/texlive/texmf-dist/fonts/tfm/public/cm/cmssbx10.tfm
INPUT /usr/share/texlive/texmf-dist/fonts/tfm/public/cm/cmssbx10.tfm
INPUT /home/fasm22/workspace/ProjectGrad/phoenix/Thesis/Avances/Defensa/./fig/StadisticalDiagram.pdf
INPUT ./fig/StadisticalDiagram.pdf
INPUT ./fig/StadisticalDiagram.pdf
INPUT /usr/share/texlive/texmf-dist/fonts/tfm/public/cm/cmcsc10.tfm
INPUT /usr/share/texlive/texmf-dist/fonts/tfm/public/cm/cmtt9.tfm
INPUT /home/fasm22/workspace/ProjectGrad/phoenix/Thesis/Avances/Defensa/./fig/rumbaDiagram.pdf
INPUT ./fig/rumbaDiagram.pdf
INPUT ./fig/rumbaDiagram.pdf
INPUT /home/fasm22/workspace/ProjectGrad/phoenix/Thesis/Avances/Defensa/./fig/basic_model.pdf
INPUT ./fig/basic_model.pdf
INPUT ./fig/basic_model.pdf
INPUT /home/fasm22/workspace/ProjectGrad/phoenix/Thesis/Avances/Defensa/./fig/sdLayout.pdf
INPUT ./fig/sdLayout.pdf
INPUT ./fig/sdLayout.pdf
INPUT /home/fasm22/workspace/ProjectGrad/phoenix/Thesis/Avances/Defensa/./fig/sdInterface.pdf
INPUT ./fig/sdInterface.pdf
INPUT ./fig/sdInterface.pdf
INPUT /home/fasm22/workspace/ProjectGrad/phoenix/Thesis/Avances/Defensa/./fig/flowDiagramHPS.pdf
INPUT ./fig/flowDiagramHPS.pdf
INPUT ./fig/flowDiagramHPS.pdf
INPUT /home/fasm22/workspace/ProjectGrad/phoenix/Thesis/Avances/Defensa/./fig/FPGASystem.pdf
INPUT ./fig/FPGASystem.pdf
INPUT ./fig/FPGASystem.pdf
INPUT /usr/share/texlive/texmf-dist/fonts/tfm/public/cm/cmss8.tfm
INPUT /usr/share/texlive/texmf-dist/fonts/tfm/public/amsfonts/cmextra/cmex7.tfm
INPUT /usr/share/texlive/texmf-dist/fonts/tfm/public/amsfonts/symbols/msam10.tfm
INPUT /usr/share/texlive/texmf-dist/fonts/tfm/public/amsfonts/symbols/msam7.tfm
INPUT /usr/share/texlive/texmf-dist/fonts/tfm/public/amsfonts/symbols/msbm10.tfm
INPUT /usr/share/texlive/texmf-dist/fonts/tfm/public/amsfonts/symbols/msbm7.tfm
INPUT /usr/share/texlive/texmf-dist/fonts/tfm/public/rsfs/rsfs10.tfm
INPUT /usr/share/texlive/texmf-dist/fonts/tfm/public/rsfs/rsfs7.tfm
INPUT /usr/share/texlive/texmf-dist/fonts/tfm/public/sansmathaccent/mathkerncmssi10.tfm
INPUT /usr/share/texlive/texmf-dist/fonts/tfm/public/sansmathaccent/mathkerncmssi8.tfm
INPUT /usr/share/texlive/texmf-dist/fonts/tfm/public/cm/cmssi10.tfm
INPUT /home/fasm22/workspace/ProjectGrad/phoenix/Thesis/Avances/Defensa/presentation.toc
INPUT /home/fasm22/workspace/ProjectGrad/phoenix/Thesis/Avances/Defensa/presentation.toc
INPUT /home/fasm22/workspace/ProjectGrad/phoenix/Thesis/Avances/Defensa/presentation.toc
INPUT /home/fasm22/workspace/ProjectGrad/phoenix/Thesis/Avances/Defensa/presentation.toc
OUTPUT /home/fasm22/workspace/ProjectGrad/phoenix/Thesis/Avances/Defensa/presentation.nav
OUTPUT /home/fasm22/workspace/ProjectGrad/phoenix/Thesis/Avances/Defensa/presentation.toc
OUTPUT /home/fasm22/workspace/ProjectGrad/phoenix/Thesis/Avances/Defensa/presentation.snm
INPUT /home/fasm22/workspace/ProjectGrad/phoenix/Thesis/Avances/Defensa/presentation.aux
INPUT /home/fasm22/workspace/ProjectGrad/phoenix/Thesis/Avances/Defensa/presentation.out
INPUT /home/fasm22/workspace/ProjectGrad/phoenix/Thesis/Avances/Defensa/presentation.out
INPUT /home/fasm22/workspace/ProjectGrad/phoenix/Thesis/Avances/Defensa/presentation.run.xml
OUTPUT /home/fasm22/workspace/ProjectGrad/phoenix/Thesis/Avances/Defensa/presentation.run.xml
INPUT /usr/share/texlive/texmf-dist/fonts/type1/public/amsfonts/cm/cmcsc10.pfb
INPUT /usr/share/texlive/texmf-dist/fonts/type1/public/amsfonts/cm/cmex10.pfb
INPUT /usr/share/texlive/texmf-dist/fonts/type1/public/amsfonts/cm/cmmi10.pfb
INPUT /usr/share/texlive/texmf-dist/fonts/type1/public/amsfonts/cm/cmmi6.pfb
INPUT /usr/share/texlive/texmf-dist/fonts/type1/public/amsfonts/cm/cmmi8.pfb
INPUT /usr/share/texlive/texmf-dist/fonts/type1/public/amsfonts/cm/cmss10.pfb
INPUT /usr/share/texlive/texmf-dist/fonts/type1/public/amsfonts/cm/cmss12.pfb
INPUT /usr/share/texlive/texmf-dist/fonts/type1/public/amsfonts/cm/cmss8.pfb
INPUT /usr/share/texlive/texmf-dist/fonts/type1/public/amsfonts/cm/cmss9.pfb
INPUT /usr/share/texlive/texmf-dist/fonts/type1/public/amsfonts/cm/cmssbx10.pfb
INPUT /usr/share/texlive/texmf-dist/fonts/type1/public/amsfonts/cm/cmssi10.pfb
INPUT /usr/share/texlive/texmf-dist/fonts/type1/public/amsfonts/cm/cmssi8.pfb
INPUT /usr/share/texlive/texmf-dist/fonts/type1/public/amsfonts/cm/cmssi9.pfb
INPUT /usr/share/texlive/texmf-dist/fonts/type1/public/amsfonts/cm/cmsy10.pfb
INPUT /usr/share/texlive/texmf-dist/fonts/type1/public/amsfonts/cm/cmsy8.pfb
INPUT /usr/share/texlive/texmf-dist/fonts/type1/public/amsfonts/cm/cmtt9.pfb
