Info: Starting: Create block symbol file (.bsf)
Info: qsys-generate /home/fasm22/workspace/ProjectGrad/phoenix/src/PlatformDesigner/BareMinimum/topModel.qsys --block-symbol-file --output-directory=/home/fasm22/workspace/ProjectGrad/phoenix/src/PlatformDesigner/BareMinimum/topModel --family="Cyclone V" --part=5CSEMA5F31C6
Progress: Loading BareMinimum/topModel.qsys
Progress: Reading input file
Progress: Adding clk_0 [clock_source 17.1]
Progress: Parameterizing module clk_0
Progress: Adding hps_0 [altera_hps 17.1]
Progress: Parameterizing module hps_0
Progress: Adding master_0 [altera_jtag_avalon_master 17.1]
Progress: Parameterizing module master_0
Progress: Building connections
Progress: Parameterizing connections
Progress: Validating
Progress: Done reading input file
Info: topModel.hps_0: HPS Main PLL counter settings: n = 0  m = 73
Info: topModel.hps_0: HPS peripherial PLL counter settings: n = 0  m = 39
Warning: topModel.hps_0: "Configuration/HPS-to-FPGA user 0 clock frequency" (desired_cfg_clk_mhz) requested 100.0 MHz, but only achieved 97.368421 MHz
Warning: topModel.hps_0: 1 or more output clock frequencies cannot be achieved precisely, consider revising desired output clock frequencies.
Warning: topModel.hps_0: ODT is disabled. Enabling ODT (Mode Register 1) may improve signal integrity
Warning: topModel.hps_0: set_interface_assignment: Interface "hps_io" does not exist
Warning: topModel.hps_0: hps_0.h2f_mpu_events must be exported, or connected to a matching conduit.
Warning: topModel.hps_0: hps_0.memory must be exported, or connected to a matching conduit.
Info: qsys-generate succeeded.
Info: Finished: Create block symbol file (.bsf)
Info: 
Info: Starting: Create HDL design files for synthesis
Info: qsys-generate /home/fasm22/workspace/ProjectGrad/phoenix/src/PlatformDesigner/BareMinimum/topModel.qsys --synthesis=VERILOG --output-directory=/home/fasm22/workspace/ProjectGrad/phoenix/src/PlatformDesigner/BareMinimum/topModel/synthesis --family="Cyclone V" --part=5CSEMA5F31C6
Progress: Loading BareMinimum/topModel.qsys
Progress: Reading input file
Progress: Adding clk_0 [clock_source 17.1]
Progress: Parameterizing module clk_0
Progress: Adding hps_0 [altera_hps 17.1]
Progress: Parameterizing module hps_0
Progress: Adding master_0 [altera_jtag_avalon_master 17.1]
Progress: Parameterizing module master_0
Progress: Building connections
Progress: Parameterizing connections
Progress: Validating
Progress: Done reading input file
Info: topModel.hps_0: HPS Main PLL counter settings: n = 0  m = 73
Info: topModel.hps_0: HPS peripherial PLL counter settings: n = 0  m = 39
Warning: topModel.hps_0: "Configuration/HPS-to-FPGA user 0 clock frequency" (desired_cfg_clk_mhz) requested 100.0 MHz, but only achieved 97.368421 MHz
Warning: topModel.hps_0: 1 or more output clock frequencies cannot be achieved precisely, consider revising desired output clock frequencies.
Warning: topModel.hps_0: ODT is disabled. Enabling ODT (Mode Register 1) may improve signal integrity
Warning: topModel.hps_0: set_interface_assignment: Interface "hps_io" does not exist
Warning: topModel.hps_0: hps_0.h2f_mpu_events must be exported, or connected to a matching conduit.
Warning: topModel.hps_0: hps_0.memory must be exported, or connected to a matching conduit.
Info: topModel: Generating topModel "topModel" for QUARTUS_SYNTH
Info: Interconnect is inserted between master master_0.master and slave hps_0.f2h_sdram0_data because the master is of type avalon and the slave is of type axi.
Info: hps_0: "Running  for module: hps_0"
Info: hps_0: HPS Main PLL counter settings: n = 0  m = 73
Info: hps_0: HPS peripherial PLL counter settings: n = 0  m = 39
Warning: hps_0: "Configuration/HPS-to-FPGA user 0 clock frequency" (desired_cfg_clk_mhz) requested 100.0 MHz, but only achieved 97.368421 MHz
Warning: hps_0: 1 or more output clock frequencies cannot be achieved precisely, consider revising desired output clock frequencies.
Warning: hps_0: ODT is disabled. Enabling ODT (Mode Register 1) may improve signal integrity
Warning: hps_0: set_interface_assignment: Interface "hps_io" does not exist
Info: hps_0: "topModel" instantiated altera_hps "hps_0"
Info: master_0: "topModel" instantiated altera_jtag_avalon_master "master_0"
Info: mm_interconnect_0: "topModel" instantiated altera_mm_interconnect "mm_interconnect_0"
Info: rst_controller: "topModel" instantiated altera_reset_controller "rst_controller"
Info: fpga_interfaces: "hps_0" instantiated altera_interface_generator "fpga_interfaces"
Info: hps_io: "hps_0" instantiated altera_hps_io "hps_io"
Info: jtag_phy_embedded_in_jtag_master: "master_0" instantiated altera_jtag_dc_streaming "jtag_phy_embedded_in_jtag_master"
Info: timing_adt: "master_0" instantiated timing_adapter "timing_adt"
Info: fifo: "master_0" instantiated altera_avalon_sc_fifo "fifo"
Info: b2p: "master_0" instantiated altera_avalon_st_bytes_to_packets "b2p"
Info: p2b: "master_0" instantiated altera_avalon_st_packets_to_bytes "p2b"
Info: transacto: "master_0" instantiated altera_avalon_packets_to_master "transacto"
Info: b2p_adapter: "master_0" instantiated channel_adapter "b2p_adapter"
Info: p2b_adapter: "master_0" instantiated channel_adapter "p2b_adapter"
Info: master_0_master_translator: "mm_interconnect_0" instantiated altera_merlin_master_translator "master_0_master_translator"
Info: master_0_master_agent: "mm_interconnect_0" instantiated altera_merlin_master_agent "master_0_master_agent"
Info: hps_0_f2h_sdram0_data_agent: "mm_interconnect_0" instantiated altera_merlin_axi_slave_ni "hps_0_f2h_sdram0_data_agent"
Info: Reusing file /home/fasm22/workspace/ProjectGrad/phoenix/src/PlatformDesigner/BareMinimum/topModel/synthesis/submodules/altera_avalon_sc_fifo.v
Info: router: "mm_interconnect_0" instantiated altera_merlin_router "router"
Info: router_001: "mm_interconnect_0" instantiated altera_merlin_router "router_001"
Info: master_0_master_limiter: "mm_interconnect_0" instantiated altera_merlin_traffic_limiter "master_0_master_limiter"
Info: Reusing file /home/fasm22/workspace/ProjectGrad/phoenix/src/PlatformDesigner/BareMinimum/topModel/synthesis/submodules/altera_avalon_sc_fifo.v
Info: Reusing file /home/fasm22/workspace/ProjectGrad/phoenix/src/PlatformDesigner/BareMinimum/topModel/synthesis/submodules/altera_avalon_st_pipeline_base.v
Info: cmd_demux: "mm_interconnect_0" instantiated altera_merlin_demultiplexer "cmd_demux"
Info: cmd_mux: "mm_interconnect_0" instantiated altera_merlin_multiplexer "cmd_mux"
Info: rsp_demux: "mm_interconnect_0" instantiated altera_merlin_demultiplexer "rsp_demux"
Info: rsp_mux: "mm_interconnect_0" instantiated altera_merlin_multiplexer "rsp_mux"
Info: Reusing file /home/fasm22/workspace/ProjectGrad/phoenix/src/PlatformDesigner/BareMinimum/topModel/synthesis/submodules/altera_merlin_arbitrator.sv
Info: hps_0_f2h_sdram0_data_wr_cmd_width_adapter: "mm_interconnect_0" instantiated altera_merlin_width_adapter "hps_0_f2h_sdram0_data_wr_cmd_width_adapter"
Info: Reusing file /home/fasm22/workspace/ProjectGrad/phoenix/src/PlatformDesigner/BareMinimum/topModel/synthesis/submodules/altera_merlin_address_alignment.sv
Info: Reusing file /home/fasm22/workspace/ProjectGrad/phoenix/src/PlatformDesigner/BareMinimum/topModel/synthesis/submodules/altera_merlin_burst_uncompressor.sv
Info: border: "hps_io" instantiated altera_interface_generator "border"
Info: topModel: Done "topModel" with 27 modules, 86 files
Info: qsys-generate succeeded.
Info: Finished: Create HDL design files for synthesis
