\relax 
\providecommand\hyper@newdestlabel[2]{}
\providecommand*\new@tpo@label[2]{}
\providecommand\HyperFirstAtBeginDocument{\AtBeginDocument}
\HyperFirstAtBeginDocument{\ifx\hyper@anchor\@undefined
\global\let\oldcontentsline\contentsline
\gdef\contentsline#1#2#3#4{\oldcontentsline{#1}{#2}{#3}}
\global\let\oldnewlabel\newlabel
\gdef\newlabel#1#2{\newlabelxx{#1}#2}
\gdef\newlabelxx#1#2#3#4#5#6{\oldnewlabel{#1}{{#2}{#3}}}
\AtEndDocument{\ifx\hyper@anchor\@undefined
\let\contentsline\oldcontentsline
\let\newlabel\oldnewlabel
\fi}
\fi}
\global\let\hyper@last\relax 
\gdef\HyperFirstAtBeginDocument#1{#1}
\providecommand\HyField@AuxAddToFields[1]{}
\providecommand\HyField@AuxAddToCoFields[2]{}
\gdef \LT@i {\LT@entry 
    {1}{35.42761pt}\LT@entry 
    {2}{137.81102pt}\LT@entry 
    {2}{194.71652pt}\LT@entry 
    {2}{137.81102pt}\LT@entry 
    {1}{0.0pt}}
\babel@aux{english}{}
\@writefile{toc}{\contentsline {section}{\numberline {1}\relax \fontsize  {14.4}{18}\selectfont  \textbf  {Tasks}}{1}{section.1}}
\gdef \LT@ii {\LT@entry 
    {2}{223.16928pt}\LT@entry 
    {2}{280.0748pt}\LT@entry 
    {1}{0.0pt}}
\@writefile{toc}{\contentsline {section}{\numberline {2}\relax \fontsize  {14.4}{18}\selectfont  \textbf  {Next Tasks}}{2}{section.2}}
\@writefile{toc}{\contentsline {section}{\numberline {3}\relax \fontsize  {14.4}{18}\selectfont  \textbf  {Current Project Status Analysis}}{2}{section.3}}
\@writefile{toc}{\contentsline {section}{\numberline {4}\relax \fontsize  {14.4}{18}\selectfont  \textbf  {Feedback}}{3}{section.4}}
\HyField@AuxAddToFields{59}
\HyField@AuxAddToFields{60}
\HyField@AuxAddToFields{61}
\HyField@AuxAddToFields{62}
\HyField@AuxAddToFields{63}
\HyField@AuxAddToFields{64}
