%% LaTeX2e file `table.tab'
%% generated by the `filecontents' environment
%% from source `report3' on 2019/04/12.
%%
    \rowcolors{2}{}{lightgray}
    \begin{longtable}{ccccX}

    \hl{Week} & \hl{Activity} & \hl{Comments} & \hl{Problems faced}  \\
    \toprule\endhead

    %-------------------------------------------------------------------------------
    8 &                    %Week number
    \begin{tabular}{p{4cm}}%Activity Description
        Perfomed some tests on time measurements for the hardware versions of the filter.\\
    \end{tabular} &
    \begin{tabular}{p{6cm}}%Comments on the activity
        Previously, the filter was be-ing applied by an activation with an user button, and thentransferred the image by another user activation.
    \end{tabular} &
    \begin{tabular}{p{4cm}}%Problems faced during the activity
        The functionality does not workcorrectly because a new way to notify the processor that theprocess has ended is require
    \end{tabular}\\

    %-------------------------------------------------------------------------------
    8 &                    %Week number
    \begin{tabular}{p{4cm}}%Activity Description
        Design of a new hardware module.\\
    \end{tabular} &
    \begin{tabular}{p{6cm}}%Comments on the activity
        Designed a new hardware module that counts the number ofcycles required to do the image processing. To avoid the interruption of the finite state machine module to perform the count operation.
    \end{tabular} &
    \begin{tabular}{p{4cm}}%Problems faced during the activity
        Found an error onthe way the time was measured by software and correct it bycalling the reset method and retrieve the updated informationfrom the PMU registers.
    \end{tabular}\\

    %-------------------------------------------------------------------------------
    8 &                    %Week number
    \begin{tabular}{p{4cm}}%Activity Description
        Meeting with supervisor Jorge Castro and definition of next activities.\\
    \end{tabular} &
    \begin{tabular}{p{6cm}}%Comments on the activity
        Created a new memory map design to allow the use of biggerimages. Created a stable point for the next development statesand upload a save version to gitlab with all the content thatis working as expected to the date.
    \end{tabular} &
    \begin{tabular}{p{4cm}}%Problems faced during the activity
        \begin{center}
            -\\
        \end{center}
    \end{tabular}\\

    %-------------------------------------------------------------------------------
    8 &                    %Week number
    \begin{tabular}{p{4cm}}%Activity Description
        Research of methods about error control and prediction from different authors.\\
    \end{tabular} &
    \begin{tabular}{p{6cm}}%Comments on the activity
        Read some papers to add relevant information about the stateof the art to the Background section of the thesis document. Highlighted some important details on those papers and made a classification for both types of error control methods (continous and periodic).
    \end{tabular} &
    \begin{tabular}{p{4cm}}%Problems faced during the activity
        \begin{center}
            -\\
        \end{center}
    \end{tabular}\\

    %-------------------------------------------------------------------------------
    9 &                    %Week number
    \begin{tabular}{p{4cm}}%Activity Description
        Implementation of a new memory map to handle bigger images.\\
    \end{tabular} &
    \begin{tabular}{p{6cm}}%Comments on the activity
        Had to change to a new one to skip the memory block that handles the access with the DMA. The final working verions datablocks starts at0x0020 0000 and ends at0x0023 FFFF, for an image size of 128x128 bits.
    \end{tabular} &
    \begin{tabular}{p{4cm}}%Problems faced during the activity
        The on chip memory blocks ofthe Cyclone V DE1-SoC are limited to a size of 64kB so this characteristic of the board limits the maximum size of the image that can be processed with this system configuration.
    \end{tabular}\\

    %-------------------------------------------------------------------------------
    9 &                    %Week number
    \begin{tabular}{p{4cm}}%Activity Description
        Generation of diagrams for the thesis document.\\
    \end{tabular} &
    \begin{tabular}{p{6cm}}%Comments on the activity
        Created some diagrams for the thesis document retrieved from the state-of-the-art papers as well as personal diagrams useful to explain the solution that is being proposed.
    \end{tabular} &
    \begin{tabular}{p{4cm}}%Problems faced during the activity
        \begin{center}
            -\\
        \end{center}
    \end{tabular}\\

    %-------------------------------------------------------------------------------
    9 &                    %Week number
    \begin{tabular}{p{4cm}}%Activity Description
        Meeting with supervisor Jorge Castro to the define the way the approximation will be made.\\
    \end{tabular} &
    \begin{tabular}{p{6cm}}%Comments on the activity
        It was agreed that the filters will be used as simple approximation by adding or relaxing operations, also using the same pixel information for near pixels to reduce the quantity of memory accesses.
    \end{tabular} &
    \begin{tabular}{p{4cm}}%Problems faced during the activity
        \begin{center}
            -\\
        \end{center}
    \end{tabular}\\

    %-------------------------------------------------------------------------------
    9 &                    %Week number
    \begin{tabular}{p{4cm}}%Activity Description
        Modification of the Finite State Machine Module.\\
    \end{tabular} &
    \begin{tabular}{p{6cm}}%Comments on the activity
        Modified the finite state machine module to skip states and perform approximations based on the saving of reading clock cycles. Adapted the code provided by supervisor Jorge Castro to generate PSNR and MSSIM metrics from images, with a CMake compilation mode and an easy interface to load the images.
    \end{tabular} &
    \begin{tabular}{p{4cm}}%Problems faced during the activity
        \begin{center}
            -\\
        \end{center}
    \end{tabular}\\

    %-------------------------------------------------------------------------------
    9 &                    %Week number
    \begin{tabular}{p{4cm}}%Activity Description
        Started the overall test process.\\
    \end{tabular} &
    \begin{tabular}{p{6cm}}%Comments on the activity
        Started with the testing process of the control method andsome approximations combinations such as:
        \begin{itemize}
   \item Exact version (with I pixel)
   \item Approximate version (without I pixel)
   \item Approx. (without I and skip I access)
   \item Approx. (E=F and skip F access)
   \item Approx. (E=F, B=C, and skip F,C access)
   \item Approx. (E=F, B=C, G=H, and skip F,C,H access)
  \end{itemize}
    \end{tabular} &
    \begin{tabular}{p{4cm}}%Problems faced during the activity
        The image was being generated wrong with trash information, however it was related to the latest module that was previously created for the cycle counter that was bad connected and it was interrupting memory operations.
    \end{tabular}\\

    %-------------------------------------------------------------------------------
    10 &                    %Week number
    \begin{tabular}{p{4cm}}%Activity Description
        Thesis writing process.\\
    \end{tabular} &
    \begin{tabular}{p{6cm}}%Comments on the activity
        Added the graphics that were generated to the thesis docu-ment to explain the RUMBA and SMURF frameworks thathave been proposed on the state of the art, and are the twomost important references for the project
    \end{tabular} &
    \begin{tabular}{p{4cm}}%Problems faced during the activity
        \begin{center}
            -\\
        \end{center}
    \end{tabular}\\

    %-------------------------------------------------------------------------------
    10 &                    %Week number
    \begin{tabular}{p{4cm}}%Activity Description
        Generation of comparative table with performance impact.\\
    \end{tabular} &
    \begin{tabular}{p{6cm}}%Comments on the activity
        To analyze the impact of adding the error control by softwarethe hardware version of the filter was configured to use theE=F, B=C, G=H model and performed different test with configurations based on the periodicity of the error control.
    \end{tabular} &
    \begin{tabular}{p{4cm}}%Problems faced during the activity
        \begin{center}
            -\\
        \end{center}
    \end{tabular}\\

    \toprule %End table

    \end{longtable}
