# Fdb version 3
["pdflatex"] 1553417163 "/home/fasm22/workspace/ProjectGrad/phoenix/Thesis/Avances/Progress_Reports/Report2/report2.tex" "/home/fasm22/workspace/ProjectGrad/phoenix/Thesis/Avances/Progress_Reports/Report2/report2.pdf" "report2" 1553417163
  "/etc/texmf/web2c/texmf.cnf" 1530807063 475 c0e671620eb5563b2130f56340a5fde8 ""
  "/home/fasm22/workspace/ProjectGrad/phoenix/Thesis/Avances/Progress_Reports/Report2/report2.aux" 1553417163 1707 d79d7810464ed49ae8dd8bed09982c12 ""
  "/home/fasm22/workspace/ProjectGrad/phoenix/Thesis/Avances/Progress_Reports/Report2/report2.tex" 1553417162 16779 76e751feb3f635059ff1b1a5884c6ce8 ""
  "/usr/share/texlive/texmf-dist/fonts/map/fontname/texfonts.map" 1511824771 3332 103109f5612ad95229751940c61aada0 ""
  "/usr/share/texlive/texmf-dist/fonts/tfm/adobe/zapfding/pzdr.tfm" 1480098689 1528 f853c4d1b4e0550255e02831fdc8496f ""
  "/usr/share/texlive/texmf-dist/fonts/tfm/jknappen/ec/ecbi1200.tfm" 1480098696 3072 ccae1a240ab272417e4399fe942df546 ""
  "/usr/share/texlive/texmf-dist/fonts/tfm/jknappen/ec/ecbi3583.tfm" 1480098696 3072 1113deab758abc8881d3546b1834d602 ""
  "/usr/share/texlive/texmf-dist/fonts/tfm/jknappen/ec/ecbx0800.tfm" 1480098696 3584 269b66e921ba58750c12f7f1c8ea3ebd ""
  "/usr/share/texlive/texmf-dist/fonts/tfm/jknappen/ec/ecbx1440.tfm" 1480098696 3584 13049b61b922a28b158a38aeff75ee9b ""
  "/usr/share/texlive/texmf-dist/fonts/tfm/jknappen/ec/ecrm0800.tfm" 1480098696 3584 49064b465390a8e316a3c8417a050403 ""
  "/usr/share/texlive/texmf-dist/fonts/tfm/jknappen/ec/ecrm1095.tfm" 1480098696 3584 929cdff2b7a8c11bd4d49fd68cb0ae70 ""
  "/usr/share/texlive/texmf-dist/fonts/tfm/jknappen/ec/ecrm1200.tfm" 1480098696 3584 f80ddd985bd00e29e9a6047ebd9d4781 ""
  "/usr/share/texlive/texmf-dist/fonts/tfm/jknappen/ec/ecrm1440.tfm" 1480098696 3584 3169d30142b88a27d4ab0e3468e963a2 ""
  "/usr/share/texlive/texmf-dist/fonts/tfm/jknappen/ec/ecss0800.tfm" 1480098696 3584 885a9b5d0df19657ad7066a0c4430437 ""
  "/usr/share/texlive/texmf-dist/fonts/tfm/jknappen/ec/ecss1095.tfm" 1480098696 3584 8ece407347b270c252c46fdfaef5a9ef ""
  "/usr/share/texlive/texmf-dist/fonts/tfm/jknappen/ec/ecsx0800.tfm" 1480098696 3584 249e17f732ef0417cd23c68109f6bc4c ""
  "/usr/share/texlive/texmf-dist/fonts/tfm/jknappen/ec/ecsx1095.tfm" 1480098696 3584 380f45aff25ba25cf53bd1991ce4247b ""
  "/usr/share/texlive/texmf-dist/fonts/tfm/jknappen/ec/ecsx1440.tfm" 1480098696 3584 9bd2baa3a21be3460ad52867ca0084f1 ""
  "/usr/share/texlive/texmf-dist/fonts/tfm/jknappen/ec/ecti1200.tfm" 1480098696 3072 8b5a64dc91775463bc95e2d818524028 ""
  "/usr/share/texlive/texmf-dist/fonts/tfm/public/cm/cmmi12.tfm" 1480098701 1524 4414a8315f39513458b80dfc63bff03a ""
  "/usr/share/texlive/texmf-dist/fonts/tfm/public/cm/cmmi6.tfm" 1480098701 1512 f21f83efb36853c0b70002322c1ab3ad ""
  "/usr/share/texlive/texmf-dist/fonts/tfm/public/cm/cmmi8.tfm" 1480098701 1520 eccf95517727cb11801f4f1aee3a21b4 ""
  "/usr/share/texlive/texmf-dist/fonts/tfm/public/cm/cmr12.tfm" 1480098701 1288 655e228510b4c2a1abe905c368440826 ""
  "/usr/share/texlive/texmf-dist/fonts/tfm/public/cm/cmr6.tfm" 1480098701 1300 b62933e007d01cfd073f79b963c01526 ""
  "/usr/share/texlive/texmf-dist/fonts/tfm/public/cm/cmr8.tfm" 1480098701 1292 21c1c5bfeaebccffdb478fd231a0997d ""
  "/usr/share/texlive/texmf-dist/fonts/tfm/public/cm/cmsy10.tfm" 1480098701 1124 6c73e740cf17375f03eec0ee63599741 ""
  "/usr/share/texlive/texmf-dist/fonts/tfm/public/cm/cmsy6.tfm" 1480098701 1116 933a60c408fc0a863a92debe84b2d294 ""
  "/usr/share/texlive/texmf-dist/fonts/tfm/public/cm/cmsy8.tfm" 1480098701 1120 8b7d695260f3cff42e636090a8002094 ""
  "/usr/share/texlive/texmf-dist/fonts/type1/public/amsfonts/cm/cmsy8.pfb" 1480098733 32626 4f5c1b83753b1dd3a97d1b399a005b4b ""
  "/usr/share/texlive/texmf-dist/fonts/type1/urw/zapfding/uzdr.pfb" 1480098746 45955 6dfcb282cf470ceb18d57d017b7898d6 ""
  "/usr/share/texlive/texmf-dist/tex/context/base/mkii/supp-pdf.mkii" 1480098806 71627 94eb9990bed73c364d7f53f960cc8c5b ""
  "/usr/share/texlive/texmf-dist/tex/generic/babel-english/english.ldf" 1496785618 7008 9ff5fdcc865b01beca2b0fe4a46231d4 ""
  "/usr/share/texlive/texmf-dist/tex/generic/babel/babel.def" 1518644053 67244 2dce3d67c354c8d92f638d0f8682fb73 ""
  "/usr/share/texlive/texmf-dist/tex/generic/babel/babel.sty" 1518644053 15861 065fe343082d0cd2428cf984d6b2ef66 ""
  "/usr/share/texlive/texmf-dist/tex/generic/babel/switch.def" 1518644053 12523 d80bc74bf5e02fe4304443a6de8d01be ""
  "/usr/share/texlive/texmf-dist/tex/generic/babel/txtbabel.def" 1518644053 7434 1b3955075683beb1c883a0fcf92ed2d5 ""
  "/usr/share/texlive/texmf-dist/tex/generic/ifxetex/ifxetex.sty" 1480098815 1458 43ab4710dc82f3edeabecd0d099626b2 ""
  "/usr/share/texlive/texmf-dist/tex/generic/oberdiek/gettitlestring.sty" 1480098815 8237 3b62ef1f7e2c23a328c814b3893bc11f ""
  "/usr/share/texlive/texmf-dist/tex/generic/oberdiek/hobsub-generic.sty" 1517006633 185082 6c11d4e30ed78e2a12957b7e77030856 ""
  "/usr/share/texlive/texmf-dist/tex/generic/oberdiek/hobsub-hyperref.sty" 1480098815 70864 bcd5b216757bd619ae692a151d90085d ""
  "/usr/share/texlive/texmf-dist/tex/generic/oberdiek/ifpdf.sty" 1490564930 1251 d170e11a3246c3392bc7f59595af42cb ""
  "/usr/share/texlive/texmf-dist/tex/generic/oberdiek/ifvtex.sty" 1480098815 6797 90b7f83b0ad46826bc16058b1e3d48df ""
  "/usr/share/texlive/texmf-dist/tex/latex/base/fontenc.sty" 1492297155 4571 13977df0eda144b93597fc709035ad1f ""
  "/usr/share/texlive/texmf-dist/tex/latex/base/inputenc.sty" 1480098821 4732 d63eda807ac82cca2ca8488efd31a966 ""
  "/usr/share/texlive/texmf-dist/tex/latex/base/omscmr.fd" 1480098821 2256 80ce1168fb4ce6a85583a9cf8972c013 ""
  "/usr/share/texlive/texmf-dist/tex/latex/base/omsenc.dfu" 1487721667 2004 ac51aeac484f08c01026120d62677eca ""
  "/usr/share/texlive/texmf-dist/tex/latex/base/ot1enc.dfu" 1487721667 3181 1cb3e9ad01f4a01127b2ffd821bfeec7 ""
  "/usr/share/texlive/texmf-dist/tex/latex/base/t1cmss.fd" 1480098821 2408 9332529df2b0aa93e638793f315828fc ""
  "/usr/share/texlive/texmf-dist/tex/latex/base/t1enc.def" 1492297155 10006 a90ba4035cf778f32f424e297d92e235 ""
  "/usr/share/texlive/texmf-dist/tex/latex/base/t1enc.dfu" 1487721667 11255 9d97362866549d3d3c994b5f28d1b9b5 ""
  "/usr/share/texlive/texmf-dist/tex/latex/base/utf8.def" 1487721667 7784 325a2a09984cb5c4ff230f9867145ad3 ""
  "/usr/share/texlive/texmf-dist/tex/latex/booktabs/booktabs.sty" 1480098823 5869 94335281ffcab47f341cf07ea8220e30 ""
  "/usr/share/texlive/texmf-dist/tex/latex/carlisle/ltxtable.sty" 1480098823 3867 1946c691b324672341b267ff4b190907 ""
  "/usr/share/texlive/texmf-dist/tex/latex/colortbl/colortbl.sty" 1480098825 10607 9635c8e2bffccf182429bfdea9b665a5 ""
  "/usr/share/texlive/texmf-dist/tex/latex/eurosym/eurosym.sty" 1480098827 3028 8faeef64adee9b964b5e7f5e45921024 ""
  "/usr/share/texlive/texmf-dist/tex/latex/extsizes/size8.clo" 1480098827 6172 5062a8faf7cb200267aa33f36102c207 ""
  "/usr/share/texlive/texmf-dist/tex/latex/filecontents/filecontents.sty" 1480098828 3051 59db604ab40642b14aebfdb750266186 ""
  "/usr/share/texlive/texmf-dist/tex/latex/float/float.sty" 1480098828 6749 16d2656a1984957e674b149555f1ea1d ""
  "/usr/share/texlive/texmf-dist/tex/latex/geometry/geometry.sty" 1480098829 40502 e003406220954b0716679d7928aedd8a ""
  "/usr/share/texlive/texmf-dist/tex/latex/graphics-cfg/color.cfg" 1480098830 1213 620bba36b25224fa9b7e1ccb4ecb76fd ""
  "/usr/share/texlive/texmf-dist/tex/latex/graphics-cfg/graphics.cfg" 1480098830 1224 978390e9c2234eab29404bc21b268d1e ""
  "/usr/share/texlive/texmf-dist/tex/latex/graphics-def/pdftex.def" 1515537368 17334 520b9b85ad8a2a48eda3f643e27a5179 ""
  "/usr/share/texlive/texmf-dist/tex/latex/graphics/graphics.sty" 1498427532 15275 7d676729b1bedd3e7f3c6717affb366c ""
  "/usr/share/texlive/texmf-dist/tex/latex/graphics/graphicx.sty" 1498427532 9066 649f2ccf62888e3d8c3e57256b70b8e1 ""
  "/usr/share/texlive/texmf-dist/tex/latex/graphics/keyval.sty" 1480098830 2594 d18d5e19aa8239cf867fa670c556d2e9 ""
  "/usr/share/texlive/texmf-dist/tex/latex/graphics/trig.sty" 1480098830 3980 0a268fbfda01e381fa95821ab13b6aee ""
  "/usr/share/texlive/texmf-dist/tex/latex/hyperref/hpdftex.def" 1518041854 51699 9069fc983fff0db91d59a15af144ad62 ""
  "/usr/share/texlive/texmf-dist/tex/latex/hyperref/hyperref.sty" 1518041854 234088 2c849389d62d41c593d9f5176c4116ab ""
  "/usr/share/texlive/texmf-dist/tex/latex/hyperref/nameref.sty" 1480098831 12949 81e4e808884a8f0e276b69410e234656 ""
  "/usr/share/texlive/texmf-dist/tex/latex/hyperref/pd1enc.def" 1518041854 14098 4e70bf396c7c265bd8b0e5cab3fd3d4d ""
  "/usr/share/texlive/texmf-dist/tex/latex/koma-script/scrartcl.cls" 1505340412 198240 cc5b4e07f76714c40cd6d10f1441ecb6 ""
  "/usr/share/texlive/texmf-dist/tex/latex/koma-script/scrbase.sty" 1505340412 77676 565fa9104d4255f0a40ba3b747d1eab2 ""
  "/usr/share/texlive/texmf-dist/tex/latex/koma-script/scrkbase.sty" 1505340412 21226 4df3ee8d4c34bd0a6774af56e7eaeb3d ""
  "/usr/share/texlive/texmf-dist/tex/latex/koma-script/scrlfile.sty" 1505340412 15832 c94d44c0c0cd662d64e6b940a4efb59a ""
  "/usr/share/texlive/texmf-dist/tex/latex/koma-script/tocbasic.sty" 1505340412 79639 eb32df82d6ca1db8236caf31dd7b3f8d ""
  "/usr/share/texlive/texmf-dist/tex/latex/koma-script/typearea.sty" 1505340412 54085 f72333c4528ff9a19f74234c26dfd7a9 ""
  "/usr/share/texlive/texmf-dist/tex/latex/latexconfig/epstopdf-sys.cfg" 1480098833 678 4792914a8f45be57bb98413425e4c7af ""
  "/usr/share/texlive/texmf-dist/tex/latex/latexconfig/hyperref.cfg" 1480098833 235 6031e5765137be07eed51a510b2b8fb7 ""
  "/usr/share/texlive/texmf-dist/tex/latex/listings/listings.cfg" 1480098833 1827 d72ad54409ca5c1068a1939c63441bd2 ""
  "/usr/share/texlive/texmf-dist/tex/latex/listings/listings.sty" 1480098833 80336 ff90c926c3d7bfdaa3d80ca57123b0bb ""
  "/usr/share/texlive/texmf-dist/tex/latex/listings/lstmisc.sty" 1480098833 77028 c3eb00afb55a32bc13ca8da7f5234377 ""
  "/usr/share/texlive/texmf-dist/tex/latex/multirow/multirow.sty" 1480201744 5015 cd8d25106b58dfc16af57528a07d0bc9 ""
  "/usr/share/texlive/texmf-dist/tex/latex/oberdiek/auxhook.sty" 1480098836 3834 4363110eb0ef1eb2b71c8fcbcdb6c357 ""
  "/usr/share/texlive/texmf-dist/tex/latex/oberdiek/epstopdf-base.sty" 1480098836 12095 5337833c991d80788a43d3ce26bd1c46 ""
  "/usr/share/texlive/texmf-dist/tex/latex/oberdiek/grfext.sty" 1480098836 7075 2fe3d848bba95f139de11ded085e74aa ""
  "/usr/share/texlive/texmf-dist/tex/latex/oberdiek/kvoptions.sty" 1480098836 22417 1d9df1eb66848aa31b18a593099cf45c ""
  "/usr/share/texlive/texmf-dist/tex/latex/oberdiek/rerunfilecheck.sty" 1480098836 9581 023642318cef9f4677efe364de1e2a27 ""
  "/usr/share/texlive/texmf-dist/tex/latex/psnfss/upzd.fd" 1480098837 148 b2a94082cb802f90d3daf6dd0c7188a0 ""
  "/usr/share/texlive/texmf-dist/tex/latex/tools/array.sty" 1485129666 12396 d41f82b039f900e95f351e54ae740f31 ""
  "/usr/share/texlive/texmf-dist/tex/latex/tools/longtable.sty" 1480098841 12083 80916157594a8e4354985aaefae4f367 ""
  "/usr/share/texlive/texmf-dist/tex/latex/tools/tabularx.sty" 1480098841 7141 64e8a94c3d083215654cd9a5b9dcc136 ""
  "/usr/share/texlive/texmf-dist/tex/latex/url/url.sty" 1480098842 12796 8edb7d69a20b857904dd0ea757c14ec9 ""
  "/usr/share/texlive/texmf-dist/tex/latex/xcolor/xcolor.sty" 1480098843 55589 34128738f682d033422ca125f82e5d62 ""
  "/usr/share/texlive/texmf-dist/web2c/texmf.cnf" 1520210507 32485 c64754543d8ac501bea6e75e209ea521 ""
  "/usr/share/texmf/fonts/enc/dvips/cm-super/cm-super-t1.enc" 1497858081 2971 def0b6c1f0b107b3b936def894055589 ""
  "/usr/share/texmf/fonts/type1/public/cm-super/sfbi3583.pfb" 1547724834 195002 02b689f88c6b9eb2f7294280a556e3b4 ""
  "/usr/share/texmf/fonts/type1/public/cm-super/sfbx0800.pfb" 1547724834 164252 e0fa571e05777bac365ddd5bdf6e8800 ""
  "/usr/share/texmf/fonts/type1/public/cm-super/sfbx1440.pfb" 1547724834 135942 859a90cad7494a1e79c94baf546d7de5 ""
  "/usr/share/texmf/fonts/type1/public/cm-super/sfrm0800.pfb" 1547724834 164227 3df942b4ff2124425d8fb1b6d3e01c7a ""
  "/usr/share/texmf/fonts/type1/public/cm-super/sfrm1095.pfb" 1547724834 145929 f25e56369a345c4ff583b067cd87ce8e ""
  "/usr/share/texmf/fonts/type1/public/cm-super/sfrm1200.pfb" 1547724834 136101 f533469f523533d38317ab5729d00c8a ""
  "/usr/share/texmf/fonts/type1/public/cm-super/sfss0800.pfb" 1547724834 95441 e322369dec2b43bb317c506a4a44deaa ""
  "/usr/share/texmf/fonts/type1/public/cm-super/sfsx1095.pfb" 1547724834 145807 7e6525044e63a61de8529743665d16c8 ""
  "/usr/share/texmf/fonts/type1/public/cm-super/sfsx1440.pfb" 1547724834 148301 cb90e68db88ca98c49afbaaab3ac1967 ""
  "/usr/share/texmf/web2c/texmf.cnf" 1520210507 32485 c64754543d8ac501bea6e75e209ea521 ""
  "/var/lib/texmf/fonts/map/pdftex/updmap/pdftex.map" 1547724842 2700761 ac0584cc9514ab21918550a6948c4ee2 ""
  "/var/lib/texmf/web2c/pdftex/pdflatex.fmt" 1547724871 4143806 ac2f2606a540a62c8233eaa9688f27b3 ""
  "fig/kit_logo.pdf" 1548663969 31722 dce180e8611e67a6483651aa29b67900 ""
  "fig/tec_logo.pdf" 1548663967 7286 76074ec81033f3dd2cc6e5d5f7103906 ""
  "report2.aux" 1553417163 1707 d79d7810464ed49ae8dd8bed09982c12 ""
  "report2.out" 1553417163 194 33ab00ce0e535a4cd46e75b5632e2f0d ""
  "report2.tex" 1553417162 16779 76e751feb3f635059ff1b1a5884c6ce8 ""
  "table.tab" 1553417163 8079 43a1769c5b7b347a29625925b700de61 ""
  "table2.tab" 1553417163 2465 b0e9186fb40e1413af4f726635ef8d3a ""
  (generated)
  "report2.pdf"
  "/home/fasm22/workspace/ProjectGrad/phoenix/Thesis/Avances/Progress_Reports/Report2/report2.log"
  "report2.aux"
  "report2.log"
  "/home/fasm22/workspace/ProjectGrad/phoenix/Thesis/Avances/Progress_Reports/Report2/report2.pdf"
  "report2.out"
  "table.tab"
  "table2.tab"
