\relax 
\providecommand\hyper@newdestlabel[2]{}
\abx@aux@refcontext{nyt/global//global/global}
\providecommand\HyperFirstAtBeginDocument{\AtBeginDocument}
\HyperFirstAtBeginDocument{\ifx\hyper@anchor\@undefined
\global\let\oldcontentsline\contentsline
\gdef\contentsline#1#2#3#4{\oldcontentsline{#1}{#2}{#3}}
\global\let\oldnewlabel\newlabel
\gdef\newlabel#1#2{\newlabelxx{#1}#2}
\gdef\newlabelxx#1#2#3#4#5#6{\oldnewlabel{#1}{{#2}{#3}}}
\AtEndDocument{\ifx\hyper@anchor\@undefined
\let\contentsline\oldcontentsline
\let\newlabel\oldnewlabel
\fi}
\fi}
\global\let\hyper@last\relax 
\gdef\HyperFirstAtBeginDocument#1{#1}
\providecommand\HyField@AuxAddToFields[1]{}
\providecommand\HyField@AuxAddToCoFields[2]{}
\@input{titlepage_licce_en.aux}
\@writefile{toc}{\boolfalse {citerequest}\boolfalse {citetracker}\boolfalse {pagetracker}\boolfalse {backtracker}\relax }
\@writefile{lof}{\boolfalse {citerequest}\boolfalse {citetracker}\boolfalse {pagetracker}\boolfalse {backtracker}\relax }
\@writefile{lot}{\boolfalse {citerequest}\boolfalse {citetracker}\boolfalse {pagetracker}\boolfalse {backtracker}\relax }
\babel@aux{english}{}
\@input{disclaimer.aux}
\@input{resumen.aux}
\@input{dedicatoria.aux}
\@input{agradecimientos.aux}
\@writefile{toc}{\defcounter {refsection}{0}\relax }\@writefile{toc}{\contentsline {chapter}{List of Figures}{iii}{chapter*.5}}
\@writefile{toc}{\defcounter {refsection}{0}\relax }\@writefile{toc}{\contentsline {chapter}{List of Tables}{v}{chapter*.6}}
\@input{intro.aux}
\abx@aux@cite{CESRef}
\abx@aux@segm{0}{0}{CESRef}
\abx@aux@cite{ThesisPabloOsorio}
\abx@aux@segm{0}{0}{ThesisPabloOsorio}
\abx@aux@cite{AproxSurvey}
\abx@aux@segm{0}{0}{AproxSurvey}
\@input{teoria.aux}
\abx@aux@segm{0}{0}{AproxSurvey}
\abx@aux@segm{0}{0}{AproxSurvey}
\abx@aux@segm{0}{0}{AproxSurvey}
\abx@aux@segm{0}{0}{AproxSurvey}
\abx@aux@segm{0}{0}{AproxSurvey}
\abx@aux@cite{AproxKozen}
\abx@aux@segm{0}{0}{AproxKozen}
\abx@aux@segm{0}{0}{AproxKozen}
\abx@aux@segm{0}{0}{AproxSurvey}
\abx@aux@segm{0}{0}{AproxSurvey}
\abx@aux@cite{AproxAdder}
\abx@aux@segm{0}{0}{AproxAdder}
\abx@aux@cite{PeriodicStatistical}
\abx@aux@segm{0}{0}{PeriodicStatistical}
\abx@aux@segm{0}{0}{PeriodicStatistical}
\abx@aux@segm{0}{0}{PeriodicStatistical}
\abx@aux@segm{0}{0}{PeriodicStatistical}
\abx@aux@cite{BookStatisticalMethods}
\abx@aux@segm{0}{0}{BookStatisticalMethods}
\abx@aux@cite{PeriodicMachineLearning}
\abx@aux@segm{0}{0}{PeriodicMachineLearning}
\abx@aux@segm{0}{0}{PeriodicMachineLearning}
\abx@aux@segm{0}{0}{PeriodicMachineLearning}
\abx@aux@cite{RumbaA}
\abx@aux@segm{0}{0}{RumbaA}
\abx@aux@cite{RumbaB}
\abx@aux@segm{0}{0}{RumbaB}
\abx@aux@segm{0}{0}{RumbaA}
\abx@aux@segm{0}{0}{RumbaB}
\abx@aux@segm{0}{0}{RumbaB}
\abx@aux@cite{NeuralAcceleration1}
\abx@aux@segm{0}{0}{NeuralAcceleration1}
\abx@aux@segm{0}{0}{RumbaA}
\abx@aux@segm{0}{0}{RumbaB}
\abx@aux@segm{0}{0}{RumbaB}
\abx@aux@cite{SamadiParaProx}
\abx@aux@segm{0}{0}{SamadiParaProx}
\abx@aux@segm{0}{0}{NeuralAcceleration1}
\abx@aux@cite{AproxSage}
\abx@aux@segm{0}{0}{AproxSage}
\abx@aux@cite{AroxGreen}
\abx@aux@segm{0}{0}{AroxGreen}
\abx@aux@cite{IterativeTraining}
\abx@aux@segm{0}{0}{IterativeTraining}
\abx@aux@segm{0}{0}{PeriodicStatistical}
\abx@aux@cite{EffectiveQualityWang}
\abx@aux@segm{0}{0}{EffectiveQualityWang}
\abx@aux@segm{0}{0}{IterativeTraining}
\abx@aux@segm{0}{0}{IterativeTraining}
\abx@aux@segm{0}{0}{IterativeTraining}
\abx@aux@segm{0}{0}{IterativeTraining}
\abx@aux@segm{0}{0}{IterativeTraining}
\abx@aux@segm{0}{0}{EffectiveQualityWang}
\abx@aux@segm{0}{0}{EffectiveQualityWang}
\abx@aux@segm{0}{0}{EffectiveQualityWang}
\@input{metodo.aux}
\abx@aux@cite{SpiralBook}
\abx@aux@segm{0}{0}{SpiralBook}
\abx@aux@cite{CompressionBook}
\abx@aux@segm{0}{0}{CompressionBook}
\abx@aux@segm{0}{0}{CompressionBook}
\abx@aux@cite{ImageQualityPaper}
\abx@aux@segm{0}{0}{ImageQualityPaper}
\abx@aux@cite{PatternRecogBook}
\abx@aux@segm{0}{0}{PatternRecogBook}
\abx@aux@segm{0}{0}{PatternRecogBook}
\@input{solucion.aux}
\abx@aux@cite{ARMBook}
\abx@aux@segm{0}{0}{ARMBook}
\abx@aux@cite{FatFS}
\abx@aux@segm{0}{0}{FatFS}
\abx@aux@cite{ARMProcessor}
\abx@aux@segm{0}{0}{ARMProcessor}
\abx@aux@cite{CompOrganizationBook}
\abx@aux@segm{0}{0}{CompOrganizationBook}
\abx@aux@cite{PMUGithub}
\abx@aux@segm{0}{0}{PMUGithub}
\abx@aux@cite{PMUArm}
\abx@aux@segm{0}{0}{PMUArm}
\abx@aux@cite{cycloneVTechManual}
\abx@aux@segm{0}{0}{cycloneVTechManual}
\abx@aux@segm{0}{0}{cycloneVTechManual}
\abx@aux@cite{scikitUserGuide}
\abx@aux@segm{0}{0}{scikitUserGuide}
\abx@aux@cite{skLearn}
\abx@aux@segm{0}{0}{skLearn}
\abx@aux@segm{0}{0}{CompOrganizationBook}
\abx@aux@segm{0}{0}{RumbaA}
\abx@aux@cite{RumbaAux}
\abx@aux@segm{0}{0}{RumbaAux}
\abx@aux@segm{0}{0}{RumbaB}
\@input{conclusiones.aux}
\@writefile{toc}{\defcounter {refsection}{0}\relax }\@writefile{toc}{\contentsline {chapter}{References}{43}{chapter*.35}}
\@input{apendiceTroubleshoot.aux}
\@input{apendiceManuals.aux}
\abx@aux@refcontextdefaultsdone
\abx@aux@defaultrefcontext{0}{AroxGreen}{nyt/global//global/global}
\abx@aux@defaultrefcontext{0}{PatternRecogBook}{nyt/global//global/global}
\abx@aux@defaultrefcontext{0}{SpiralBook}{nyt/global//global/global}
\abx@aux@defaultrefcontext{0}{ImageQualityPaper}{nyt/global//global/global}
\abx@aux@defaultrefcontext{0}{ARMProcessor}{nyt/global//global/global}
\abx@aux@defaultrefcontext{0}{PMUArm}{nyt/global//global/global}
\abx@aux@defaultrefcontext{0}{scikitUserGuide}{nyt/global//global/global}
\abx@aux@defaultrefcontext{0}{FatFS}{nyt/global//global/global}
\abx@aux@defaultrefcontext{0}{NeuralAcceleration1}{nyt/global//global/global}
\abx@aux@defaultrefcontext{0}{RumbaAux}{nyt/global//global/global}
\abx@aux@defaultrefcontext{0}{cycloneVTechManual}{nyt/global//global/global}
\abx@aux@defaultrefcontext{0}{ARMBook}{nyt/global//global/global}
\abx@aux@defaultrefcontext{0}{AproxAdder}{nyt/global//global/global}
\abx@aux@defaultrefcontext{0}{RumbaB}{nyt/global//global/global}
\abx@aux@defaultrefcontext{0}{RumbaA}{nyt/global//global/global}
\abx@aux@defaultrefcontext{0}{AproxKozen}{nyt/global//global/global}
\abx@aux@defaultrefcontext{0}{PeriodicStatistical}{nyt/global//global/global}
\abx@aux@defaultrefcontext{0}{ThesisPabloOsorio}{nyt/global//global/global}
\abx@aux@defaultrefcontext{0}{CompOrganizationBook}{nyt/global//global/global}
\abx@aux@defaultrefcontext{0}{skLearn}{nyt/global//global/global}
\abx@aux@defaultrefcontext{0}{CompressionBook}{nyt/global//global/global}
\abx@aux@defaultrefcontext{0}{AproxSage}{nyt/global//global/global}
\abx@aux@defaultrefcontext{0}{SamadiParaProx}{nyt/global//global/global}
\abx@aux@defaultrefcontext{0}{PMUGithub}{nyt/global//global/global}
\abx@aux@defaultrefcontext{0}{BookStatisticalMethods}{nyt/global//global/global}
\abx@aux@defaultrefcontext{0}{PeriodicMachineLearning}{nyt/global//global/global}
\abx@aux@defaultrefcontext{0}{CESRef}{nyt/global//global/global}
\abx@aux@defaultrefcontext{0}{EffectiveQualityWang}{nyt/global//global/global}
\abx@aux@defaultrefcontext{0}{IterativeTraining}{nyt/global//global/global}
\abx@aux@defaultrefcontext{0}{AproxSurvey}{nyt/global//global/global}
\newlabel{LastPage}{{}{59}{}{page.59}{}}
\xdef\lastpage@lastpage{59}
\xdef\lastpage@lastpageHy{59}
