\relax 
\providecommand\hyper@newdestlabel[2]{}
\@writefile{toc}{\defcounter {refsection}{0}\relax }\@writefile{toc}{\contentsline {chapter}{\numberline {4}Development of an Accuracy Control Architecture for Approximate Accelerators}{20}{chapter.4}}
\@writefile{lof}{\defcounter {refsection}{0}\relax }\@writefile{lof}{\addvspace {10\p@ }}
\@writefile{lot}{\defcounter {refsection}{0}\relax }\@writefile{lot}{\addvspace {10\p@ }}
\newlabel{ch:solucion}{{4}{20}{Development of an Accuracy Control Architecture for Approximate Accelerators}{chapter.4}{}}
\@writefile{toc}{\defcounter {refsection}{0}\relax }\@writefile{toc}{\contentsline {section}{\numberline {4.1}Design and development}{20}{section.4.1}}
\@writefile{lof}{\defcounter {refsection}{0}\relax }\@writefile{lof}{\contentsline {figure}{\numberline {4.1}{\ignorespaces Main components of the system}}{20}{figure.caption.19}}
\newlabel{fig:mainComponents}{{4.1}{20}{Main components of the system}{figure.caption.19}{}}
\@writefile{toc}{\defcounter {refsection}{0}\relax }\@writefile{toc}{\contentsline {subsection}{\numberline {4.1.1}SD Card Interface}{21}{subsection.4.1.1}}
\@writefile{lof}{\defcounter {refsection}{0}\relax }\@writefile{lof}{\contentsline {figure}{\numberline {4.2}{\ignorespaces SD Layout reference model\relax }}{21}{figure.caption.20}}
\newlabel{fig:sdlayout1}{{4.2}{21}{SD Layout reference model\relax }{figure.caption.20}{}}
\@writefile{lof}{\defcounter {refsection}{0}\relax }\@writefile{lof}{\contentsline {figure}{\numberline {4.3}{\ignorespaces FatFS Library SD Interface}}{22}{figure.caption.21}}
\newlabel{fig:sdInterface}{{4.3}{22}{FatFS Library SD Interface}{figure.caption.21}{}}
\@writefile{exs}{\defcounter {refsection}{0}\relax }\@writefile{exs}{\contentsline {section}{4.1\hskip 1em\relax ~Basic FatFS mount code}{22}{codesnippet.1}}
\newlabel{code:basicMount}{{1}{23}{SD Card Interface}{lstnumber.12}{}}
\@writefile{toc}{\defcounter {refsection}{0}\relax }\@writefile{toc}{\contentsline {subsection}{\numberline {4.1.2}Hard Processor System (Exact and Control Core)}{23}{subsection.4.1.2}}
\@writefile{lof}{\defcounter {refsection}{0}\relax }\@writefile{lof}{\contentsline {figure}{\numberline {4.4}{\ignorespaces ARM Cortex A9}}{23}{figure.caption.22}}
\newlabel{fig:ARMCortex}{{4.4}{23}{ARM Cortex A9}{figure.caption.22}{}}
\@writefile{exs}{\defcounter {refsection}{0}\relax }\@writefile{exs}{\contentsline {section}{4.2\hskip 1em\relax ~HPS Read/Write Operations}{24}{codesnippet.2}}
\newlabel{code:ioOperations}{{2}{24}{Hard Processor System (Exact and Control Core)}{lstnumber.14}{}}
\@writefile{lof}{\defcounter {refsection}{0}\relax }\@writefile{lof}{\contentsline {figure}{\numberline {4.5}{\ignorespaces Flow diagram of the HPS program}}{25}{figure.caption.23}}
\newlabel{fig:flowDiagramHPS}{{4.5}{25}{Flow diagram of the HPS program}{figure.caption.23}{}}
\@writefile{exs}{\defcounter {refsection}{0}\relax }\@writefile{exs}{\contentsline {section}{4.3\hskip 1em\relax ~Quality control cycle code}{26}{codesnippet.3}}
\newlabel{code:qualityMethod}{{3}{26}{Hard Processor System (Exact and Control Core)}{lstnumber.20}{}}
\@writefile{toc}{\defcounter {refsection}{0}\relax }\@writefile{toc}{\contentsline {subsection}{\numberline {4.1.3}FPGA (Approximate Core)}{27}{subsection.4.1.3}}
\@writefile{lof}{\defcounter {refsection}{0}\relax }\@writefile{lof}{\contentsline {figure}{\numberline {4.6}{\ignorespaces FPGA System Diagram}}{27}{figure.caption.24}}
\newlabel{fig:FPGASystem}{{4.6}{27}{FPGA System Diagram}{figure.caption.24}{}}
\@writefile{lof}{\defcounter {refsection}{0}\relax }\@writefile{lof}{\contentsline {figure}{\numberline {4.7}{\ignorespaces System's Memory Map\relax }}{28}{figure.4.7}}
\newlabel{fig:memMap}{{4.7}{28}{System's Memory Map\relax }{figure.4.7}{}}
\@writefile{lof}{\defcounter {refsection}{0}\relax }\@writefile{lof}{\contentsline {figure}{\numberline {4.8}{\ignorespaces Finite State Machine operating diagram}}{29}{figure.caption.25}}
\newlabel{fig:fsmDiagram}{{4.8}{29}{Finite State Machine operating diagram}{figure.caption.25}{}}
\@writefile{lot}{\defcounter {refsection}{0}\relax }\@writefile{lot}{\contentsline {table}{\numberline {4.1}{\ignorespaces FSM States Description\relax }}{29}{table.4.1}}
\newlabel{table:fsmStates}{{4.1}{29}{FSM States Description\relax }{table.4.1}{}}
\@writefile{toc}{\defcounter {refsection}{0}\relax }\@writefile{toc}{\contentsline {subsection}{\numberline {4.1.4}Communication between HPS and FPGA}{30}{subsection.4.1.4}}
\@writefile{lof}{\defcounter {refsection}{0}\relax }\@writefile{lof}{\contentsline {figure}{\numberline {4.9}{\ignorespaces HPS System Diagram}}{30}{figure.caption.26}}
\newlabel{fig:HPSSystem}{{4.9}{30}{HPS System Diagram}{figure.caption.26}{}}
\@writefile{toc}{\defcounter {refsection}{0}\relax }\@writefile{toc}{\contentsline {subsection}{\numberline {4.1.5}Training Process of the Hardware Prediction Module}{31}{subsection.4.1.5}}
\newlabel{equ:logisticModel}{{4.1}{31}{Training Process of the Hardware Prediction Module}{equation.4.1}{}}
\newlabel{equ:linearModel}{{4.2}{31}{Training Process of the Hardware Prediction Module}{equation.4.2}{}}
\@writefile{toc}{\defcounter {refsection}{0}\relax }\@writefile{toc}{\contentsline {section}{\numberline {4.2}Results and analysis}{32}{section.4.2}}
\newlabel{sec:results}{{4.2}{32}{Results and analysis}{section.4.2}{}}
\@writefile{lof}{\defcounter {refsection}{0}\relax }\@writefile{lof}{\contentsline {figure}{\numberline {4.10}{\ignorespaces Kernel Matrix Representation}}{32}{figure.caption.27}}
\newlabel{fig:kernelMatrix}{{4.10}{32}{Kernel Matrix Representation}{figure.caption.27}{}}
\@writefile{lot}{\defcounter {refsection}{0}\relax }\@writefile{lot}{\contentsline {table}{\numberline {4.2}{\ignorespaces Settings available for the system\relax }}{32}{table.4.2}}
\newlabel{table:systemModes}{{4.2}{32}{Settings available for the system\relax }{table.4.2}{}}
\@writefile{lot}{\defcounter {refsection}{0}\relax }\@writefile{lot}{\contentsline {table}{\numberline {4.3}{\ignorespaces Obtained results from \textit  {Lena} test image of 128x128 size\relax }}{33}{table.4.3}}
\newlabel{table:results1}{{4.3}{33}{Obtained results from \textit {Lena} test image of 128x128 size\relax }{table.4.3}{}}
\@writefile{lof}{\defcounter {refsection}{0}\relax }\@writefile{lof}{\contentsline {figure}{\numberline {4.11}{\ignorespaces Software Cycles vs Approximation Level\relax }}{34}{figure.caption.28}}
\newlabel{fig:swcycles_vs_approx}{{4.11}{34}{Software Cycles vs Approximation Level\relax }{figure.caption.28}{}}
\newlabel{equ:linearFinalModel}{{4.3}{34}{Results and analysis}{equation.4.3}{}}
\expandafter \gdef \csname pgfplots@labelstyle@plot_one\endcsname {smooth={},mark={*},black={\pgfkeysnovalue }}
\expandafter \gdef \csname pgfplots@show@ref@plot_one\endcsname {\begingroup \def \pgfplots@draw@image {\def \tikz@plot@handler {\pgfkeys {/pgf/plots/@handler options/.cd, start=\relax , end macro=\relax , point macro=\pgfutil@gobble , jump macro=\relax , special macro=\pgfutil@gobble , point macro=\pgf@plot@line@handler , jump=\global \let \pgf@plotstreampoint \pgf@plot@line@handler@move }\begingroup \escapechar =-1 \edef \pgfplotsplothandlername {\string \pgfplothandlerlineto }\pgfmath@smuggleone \pgfplotsplothandlername \endgroup \def \pgfplotsplothandlerLUAfactory {function(axis, pointmetainputhandler) return pgfplots.GenericPlothandler.new("\pgfplotsplothandlername ", axis,pointmetainputhandler) end}\def \pgfplotsplothandlerLUAvisualizerfactory {pgfplots.defaultPlotVisualizerFactory}}\pgfkeysdef {/pgfplots/legend image code}{\draw [/pgfplots/mesh=false,bar width=3pt,bar shift=0pt,mark repeat=2,mark phase=2,] plot coordinates { (0cm,0cm) (0.3cm,0cm) (0.6cm,0cm)};}\pgfkeysdef {/pgfplots/every legend image post}{}\pgfkeyssetvalue {/pgfplots/mark list fill}{.!80!black}\pgfkeysdef {/pgfplots/every crossref picture}{\pgfkeysalso {baseline,yshift=0.3em}}\pgfplots@show@small@legendplots {smooth={},mark={*},black={\pgfkeysnovalue }}{}}\ifpgfpicture \scope [/pgfplots/every crossref picture]\pgfplots@draw@image \endscope \else \expandafter \ifx \csname tikzappendtofigurename\endcsname \relax \else \begingroup \tikzappendtofigurename {_crossref}\fi \tikz [/pgfplots/every crossref picture]{\pgfplots@draw@image }\expandafter \ifx \csname tikzappendtofigurename\endcsname \relax \else \endgroup \fi \fi \endgroup }
\expandafter \gdef \csname pgfplots@labelstyle@plot_two\endcsname {smooth={},mark={*},black!50={\pgfkeysnovalue }}
\expandafter \gdef \csname pgfplots@show@ref@plot_two\endcsname {\begingroup \def \pgfplots@draw@image {\def \tikz@plot@handler {\pgfkeys {/pgf/plots/@handler options/.cd, start=\relax , end macro=\relax , point macro=\pgfutil@gobble , jump macro=\relax , special macro=\pgfutil@gobble , point macro=\pgf@plot@line@handler , jump=\global \let \pgf@plotstreampoint \pgf@plot@line@handler@move }\begingroup \escapechar =-1 \edef \pgfplotsplothandlername {\string \pgfplothandlerlineto }\pgfmath@smuggleone \pgfplotsplothandlername \endgroup \def \pgfplotsplothandlerLUAfactory {function(axis, pointmetainputhandler) return pgfplots.GenericPlothandler.new("\pgfplotsplothandlername ", axis,pointmetainputhandler) end}\def \pgfplotsplothandlerLUAvisualizerfactory {pgfplots.defaultPlotVisualizerFactory}}\pgfkeysdef {/pgfplots/legend image code}{\draw [/pgfplots/mesh=false,bar width=3pt,bar shift=0pt,mark repeat=2,mark phase=2,] plot coordinates { (0cm,0cm) (0.3cm,0cm) (0.6cm,0cm)};}\pgfkeysdef {/pgfplots/every legend image post}{}\pgfkeyssetvalue {/pgfplots/mark list fill}{.!80!black}\pgfkeysdef {/pgfplots/every crossref picture}{\pgfkeysalso {baseline,yshift=0.3em}}\pgfplots@show@small@legendplots {smooth={},mark={*},black!50={\pgfkeysnovalue }}{}}\ifpgfpicture \scope [/pgfplots/every crossref picture]\pgfplots@draw@image \endscope \else \expandafter \ifx \csname tikzappendtofigurename\endcsname \relax \else \begingroup \tikzappendtofigurename {_crossref}\fi \tikz [/pgfplots/every crossref picture]{\pgfplots@draw@image }\expandafter \ifx \csname tikzappendtofigurename\endcsname \relax \else \endgroup \fi \fi \endgroup }
\@writefile{lot}{\defcounter {refsection}{0}\relax }\@writefile{lot}{\contentsline {table}{\numberline {4.4}{\ignorespaces Trained linear model coefficients\relax }}{35}{table.4.4}}
\newlabel{table:trainedCoeffs}{{4.4}{35}{Trained linear model coefficients\relax }{table.4.4}{}}
\@writefile{lof}{\defcounter {refsection}{0}\relax }\@writefile{lof}{\contentsline {figure}{\numberline {4.12}{\ignorespaces Confusion matrix information for trained linear model\relax }}{35}{figure.caption.29}}
\newlabel{fig:confMatrix1}{{4.12}{35}{Confusion matrix information for trained linear model\relax }{figure.caption.29}{}}
\@writefile{lof}{\defcounter {refsection}{0}\relax }\@writefile{lof}{\contentsline {figure}{\numberline {4.13}{\ignorespaces Clasification with linear regression model over 100 data sample\relax }}{36}{figure.caption.30}}
\newlabel{fig:classModel}{{4.13}{36}{Clasification with linear regression model over 100 data sample\relax }{figure.caption.30}{}}
\@writefile{lot}{\defcounter {refsection}{0}\relax }\@writefile{lot}{\contentsline {table}{\numberline {4.5}{\ignorespaces PSNR and MSSIM results for test images set with an agressive approximation\relax }}{36}{table.4.5}}
\newlabel{table:resultsImageSet}{{4.5}{36}{PSNR and MSSIM results for test images set with an agressive approximation\relax }{table.4.5}{}}
\@writefile{lof}{\defcounter {refsection}{0}\relax }\@writefile{lof}{\contentsline {figure}{\numberline {4.14}{\ignorespaces Average results of PSNR metric over test images set with Gaussian Filter\relax }}{37}{figure.caption.31}}
\newlabel{fig:avgPSNR}{{4.14}{37}{Average results of PSNR metric over test images set with Gaussian Filter\relax }{figure.caption.31}{}}
\@writefile{lof}{\defcounter {refsection}{0}\relax }\@writefile{lof}{\contentsline {figure}{\numberline {4.15}{\ignorespaces Average results of MSSIM metric over test images set with Gaussian Filter\relax }}{37}{figure.caption.32}}
\newlabel{fig:avgMSSIM}{{4.15}{37}{Average results of MSSIM metric over test images set with Gaussian Filter\relax }{figure.caption.32}{}}
\newlabel{plot_one}{{\expandafter\protect\csname pgfplots@show@ref@plot_one\endcsname}{38}{Results and analysis}{pgfplotslink.\thepgfplotslink }{}}
\newlabel{plot_two}{{\expandafter\protect\csname pgfplots@show@ref@plot_two\endcsname}{38}{Results and analysis}{pgfplotslink.\thepgfplotslink }{}}
\@writefile{lof}{\defcounter {refsection}{0}\relax }\@writefile{lof}{\contentsline {figure}{\numberline {4.16}{\ignorespaces Used Clock Cycles vs Average MSSIM\relax }}{38}{figure.caption.33}}
\newlabel{fig:clocksVSmssim}{{4.16}{38}{Used Clock Cycles vs Average MSSIM\relax }{figure.caption.33}{}}
\@writefile{lof}{\defcounter {refsection}{0}\relax }\@writefile{lof}{\contentsline {figure}{\numberline {4.17}{\ignorespaces MSSIM against the periodicity of the software control method\relax }}{38}{figure.caption.34}}
\newlabel{fig:swPeriodMSSIM}{{4.17}{38}{MSSIM against the periodicity of the software control method\relax }{figure.caption.34}{}}
\@writefile{lof}{\defcounter {refsection}{0}\relax }\@writefile{lof}{\contentsline {figure}{\numberline {4.18}{\ignorespaces Gaussian filter comparison over \textit  {Baboon} test image.\relax }}{39}{figure.4.18}}
\newlabel{fig:gaussResults}{{4.18}{39}{Gaussian filter comparison over \textit {Baboon} test image.\relax }{figure.4.18}{}}
\@writefile{lof}{\defcounter {refsection}{0}\relax }\@writefile{lof}{\contentsline {figure}{\numberline {4.19}{\ignorespaces Laplace filter comparison over \textit  {Barbara} test image.\relax }}{39}{figure.4.19}}
\newlabel{fig:LaplaceResults}{{4.19}{39}{Laplace filter comparison over \textit {Barbara} test image.\relax }{figure.4.19}{}}
\@writefile{lof}{\defcounter {refsection}{0}\relax }\@writefile{lof}{\contentsline {figure}{\numberline {4.20}{\ignorespaces Sobel filter comparison over \textit  {Bigben} test image.\relax }}{40}{figure.4.20}}
\newlabel{fig:SobelResults}{{4.20}{40}{Sobel filter comparison over \textit {Bigben} test image.\relax }{figure.4.20}{}}
\@setckpt{solucion}{
\setcounter{page}{41}
\setcounter{equation}{3}
\setcounter{enumi}{2}
\setcounter{enumii}{0}
\setcounter{enumiii}{0}
\setcounter{enumiv}{0}
\setcounter{footnote}{0}
\setcounter{mpfootnote}{0}
\setcounter{part}{0}
\setcounter{chapter}{4}
\setcounter{section}{2}
\setcounter{subsection}{0}
\setcounter{subsubsection}{0}
\setcounter{paragraph}{0}
\setcounter{subparagraph}{0}
\setcounter{figure}{20}
\setcounter{table}{5}
\setcounter{Exercise}{0}
\setcounter{Answer}{0}
\setcounter{ExePart}{0}
\setcounter{Question}{0}
\setcounter{subQuestion}{0}
\setcounter{subsubQuestion}{0}
\setcounter{savedQuestion}{0}
\setcounter{savedsubQuestion}{0}
\setcounter{savedsubsubQuestion}{0}
\setcounter{parentequation}{0}
\setcounter{LT@tables}{0}
\setcounter{LT@chunks}{0}
\setcounter{compactenumi}{0}
\setcounter{compactenumii}{0}
\setcounter{compactenumiii}{0}
\setcounter{ContinuedFloat}{0}
\setcounter{float@type}{8}
\setcounter{Def}{0}
\setcounter{nexample}{0}
\setcounter{lstnumber}{21}
\setcounter{tabx@nest}{0}
\setcounter{listtotal}{0}
\setcounter{listcount}{0}
\setcounter{liststart}{0}
\setcounter{liststop}{0}
\setcounter{citecount}{0}
\setcounter{citetotal}{0}
\setcounter{multicitecount}{0}
\setcounter{multicitetotal}{0}
\setcounter{instcount}{65}
\setcounter{maxnames}{3}
\setcounter{minnames}{3}
\setcounter{maxitems}{3}
\setcounter{minitems}{1}
\setcounter{citecounter}{0}
\setcounter{savedcitecounter}{0}
\setcounter{uniquelist}{0}
\setcounter{uniquename}{0}
\setcounter{refsection}{0}
\setcounter{refsegment}{0}
\setcounter{maxextratitle}{0}
\setcounter{maxextratitleyear}{0}
\setcounter{maxextradate}{0}
\setcounter{maxextraalpha}{0}
\setcounter{abbrvpenalty}{50}
\setcounter{highnamepenalty}{50}
\setcounter{lownamepenalty}{25}
\setcounter{maxparens}{3}
\setcounter{parenlevel}{0}
\setcounter{mincomprange}{10}
\setcounter{maxcomprange}{100000}
\setcounter{mincompwidth}{1}
\setcounter{afterword}{0}
\setcounter{savedafterword}{0}
\setcounter{annotator}{0}
\setcounter{savedannotator}{0}
\setcounter{author}{0}
\setcounter{savedauthor}{0}
\setcounter{bookauthor}{0}
\setcounter{savedbookauthor}{0}
\setcounter{commentator}{0}
\setcounter{savedcommentator}{0}
\setcounter{editor}{0}
\setcounter{savededitor}{0}
\setcounter{editora}{0}
\setcounter{savededitora}{0}
\setcounter{editorb}{0}
\setcounter{savededitorb}{0}
\setcounter{editorc}{0}
\setcounter{savededitorc}{0}
\setcounter{foreword}{0}
\setcounter{savedforeword}{0}
\setcounter{holder}{0}
\setcounter{savedholder}{0}
\setcounter{introduction}{0}
\setcounter{savedintroduction}{0}
\setcounter{namea}{0}
\setcounter{savednamea}{0}
\setcounter{nameb}{0}
\setcounter{savednameb}{0}
\setcounter{namec}{0}
\setcounter{savednamec}{0}
\setcounter{translator}{0}
\setcounter{savedtranslator}{0}
\setcounter{shortauthor}{0}
\setcounter{savedshortauthor}{0}
\setcounter{shorteditor}{0}
\setcounter{savedshorteditor}{0}
\setcounter{labelname}{0}
\setcounter{savedlabelname}{0}
\setcounter{institution}{0}
\setcounter{savedinstitution}{0}
\setcounter{lista}{0}
\setcounter{savedlista}{0}
\setcounter{listb}{0}
\setcounter{savedlistb}{0}
\setcounter{listc}{0}
\setcounter{savedlistc}{0}
\setcounter{listd}{0}
\setcounter{savedlistd}{0}
\setcounter{liste}{0}
\setcounter{savedliste}{0}
\setcounter{listf}{0}
\setcounter{savedlistf}{0}
\setcounter{location}{0}
\setcounter{savedlocation}{0}
\setcounter{organization}{0}
\setcounter{savedorganization}{0}
\setcounter{origlocation}{0}
\setcounter{savedoriglocation}{0}
\setcounter{origpublisher}{0}
\setcounter{savedorigpublisher}{0}
\setcounter{publisher}{0}
\setcounter{savedpublisher}{0}
\setcounter{language}{0}
\setcounter{savedlanguage}{0}
\setcounter{origlanguage}{0}
\setcounter{savedoriglanguage}{0}
\setcounter{pageref}{0}
\setcounter{savedpageref}{0}
\setcounter{textcitecount}{0}
\setcounter{textcitetotal}{0}
\setcounter{textcitemaxnames}{0}
\setcounter{biburlnumpenalty}{0}
\setcounter{biburlucpenalty}{0}
\setcounter{biburllcpenalty}{0}
\setcounter{smartand}{1}
\setcounter{bbx:relatedcount}{0}
\setcounter{bbx:relatedtotal}{0}
\setcounter{cbx@tempcnta}{0}
\setcounter{cbx@tempcntb}{14}
\setcounter{Item}{6}
\setcounter{Hfootnote}{0}
\setcounter{bookmark@seq@number}{36}
\setcounter{r@tfl@t}{0}
\setcounter{subfigure}{6}
\setcounter{subtable}{0}
\setcounter{su@anzahl}{0}
\setcounter{DTLrowi}{4}
\setcounter{DTLrowii}{0}
\setcounter{DTLrowiii}{0}
\setcounter{DTLrow}{3}
\setcounter{DTLpieroundvar}{1}
\setcounter{codesnippet}{3}
\setcounter{lstlisting}{0}
\setcounter{section@level}{1}
}
